<?xml version="1.0" encoding="UTF-8" standalone="no"?>
<!DOCTYPE svg PUBLIC "-//W3C//DTD SVG 1.1//EN"
 "http://www.w3.org/Graphics/SVG/1.1/DTD/svg11.dtd">
<!-- Generated by graphviz version 3.0.0 (20220226.1711)
 -->
<!-- Pages: 1 -->
<svg width="2678pt" height="724pt"
 viewBox="0.00 0.00 2678.00 724.00" xmlns="http://www.w3.org/2000/svg" xmlns:xlink="http://www.w3.org/1999/xlink">
<g id="graph0" class="graph" transform="scale(1 1) rotate(0) translate(4 720)">
<polygon fill="white" stroke="transparent" points="-4,4 -4,-720 2674,-720 2674,4 -4,4"/>
<g id="clust1" class="cluster">
<title>cluster</title>
<polygon fill="#234178" fill-opacity="0.184314" stroke="black" points="8,-8 8,-708 2662,-708 2662,-8 8,-8"/>
<text text-anchor="middle" x="1335" y="-692.8" font-family="Times,serif" font-size="14.00">Global</text>
</g>
<g id="clust3" class="cluster">
<title>cluster_2</title>
<polygon fill="#234178" fill-opacity="0.184314" stroke="black" points="208,-16 208,-618 1080,-618 1080,-16 208,-16"/>
<text text-anchor="middle" x="644" y="-602.8" font-family="Times,serif" font-size="14.00">CellType[dividingcell]</text>
</g>
<g id="clust4" class="cluster">
<title>cluster_cpm2</title>
<polygon fill="#234178" fill-opacity="0.184314" stroke="black" points="946,-24 946,-111 1072,-111 1072,-24 946,-24"/>
<text text-anchor="middle" x="1009" y="-95.8" font-family="Times,serif" font-size="14.00">CPM plugins</text>
</g>
<g id="clust6" class="cluster">
<title>cluster_4</title>
<polygon fill="#234178" fill-opacity="0.184314" stroke="black" points="996,-183 996,-270 1072,-270 1072,-183 996,-183"/>
<text text-anchor="middle" x="1034" y="-254.8" font-family="Times,serif" font-size="14.00">System</text>
</g>
<!-- Gnuplotter_0_50 -->
<g id="node1" class="node">
<title>Gnuplotter_0_50</title>
<g id="a_node1"><a xlink:href="morph://MorpheusModel/Analysis/Gnuplotter" xlink:title="&lt;TABLE&gt;">
<polygon fill="#fffea3" stroke="transparent" points="2088.5,-593 2009.5,-593 2009.5,-545 2088.5,-545 2088.5,-593"/>
<text text-anchor="start" x="2014" y="-577" font-family="times" font-size="15.00">Gnuplotter</text>
<text text-anchor="start" x="2041" y="-554" font-family="times" font-size="15.00">50</text>
<polygon fill="black" stroke="black" points="2010,-569 2010,-569 2089,-569 2089,-569 2010,-569"/>
<polygon fill="none" stroke="black" points="2009.5,-545 2009.5,-593 2088.5,-593 2088.5,-545 2009.5,-545"/>
</a>
</g>
</g>
<!-- CPM_0_1 -->
<g id="node2" class="node">
<title>CPM_0_1</title>
<g id="a_node2"><a xlink:href="morph://MorpheusModel/CPM" xlink:title="&lt;TABLE&gt;">
<polygon fill="#fffea3" stroke="transparent" points="1328,-597 1270,-597 1270,-541 1328,-541 1328,-597"/>
<text text-anchor="start" x="1282" y="-577" font-family="times" font-size="15.00">CPM</text>
<text text-anchor="start" x="1294.5" y="-554" font-family="times" font-size="15.00">1</text>
<polygon fill="black" stroke="black" points="1278,-569 1278,-569 1320,-569 1320,-569 1278,-569"/>
<polygon fill="none" stroke="black" points="1278,-545 1278,-593 1320,-593 1320,-545 1278,-545"/>
</a>
</g>
</g>
<!-- cell_center_0 -->
<g id="node19" class="node">
<title>cell_center_0</title>
<ellipse fill="#b5b426" stroke="black" cx="1139" cy="-481" rx="47.4" ry="18"/>
<ellipse fill="none" stroke="black" cx="1139" cy="-481" rx="51.39" ry="22"/>
<text text-anchor="middle" x="1139" y="-477.3" font-family="Times,serif" font-size="14.00">cell.center</text>
</g>
<!-- CPM_0_1&#45;&gt;cell_center_0 -->
<g id="edge7" class="edge">
<title>CPM_0_1&#45;&gt;cell_center_0</title>
<path fill="none" stroke="#8f100d" stroke-width="3" d="M1269.65,-552.23C1244.28,-538.59 1207.37,-518.75 1179.24,-503.63"/>
<polygon fill="#8f100d" stroke="#8f100d" stroke-width="3" points="1180.54,-500.35 1170.07,-498.7 1177.22,-506.52 1180.54,-500.35"/>
</g>
<!-- cell_type_0 -->
<g id="node20" class="node">
<title>cell_type_0</title>
<ellipse fill="#d3d247" stroke="black" cx="1253" cy="-481" rx="40.9" ry="18"/>
<ellipse fill="none" stroke="black" cx="1253" cy="-481" rx="44.89" ry="22"/>
<text text-anchor="middle" x="1253" y="-477.3" font-family="Times,serif" font-size="14.00">cell.type</text>
</g>
<!-- CPM_0_1&#45;&gt;cell_type_0 -->
<g id="edge8" class="edge">
<title>CPM_0_1&#45;&gt;cell_type_0</title>
<path fill="none" stroke="#8f100d" stroke-width="3" d="M1284.45,-540.79C1279.47,-531.49 1273.88,-521.04 1268.81,-511.57"/>
<polygon fill="#8f100d" stroke="#8f100d" stroke-width="3" points="1271.76,-509.66 1263.96,-502.49 1265.59,-512.96 1271.76,-509.66"/>
</g>
<!-- DirectedMotion_2_9504528359561386930 -->
<g id="node42" class="node">
<title>DirectedMotion_2_9504528359561386930</title>
<g id="a_node42"><a xlink:href="morph://MorpheusModel/CellTypes/CellType[1]/DirectedMotion" xlink:title="&lt;TABLE&gt;">
<polygon fill="#fffea3" stroke="transparent" points="1063.5,-80 954.5,-80 954.5,-32 1063.5,-32 1063.5,-80"/>
<text text-anchor="start" x="959" y="-64" font-family="times" font-size="15.00">DirectedMotion</text>
<text text-anchor="start" x="960" y="-42" font-family="times" font-style="italic" font-size="15.00">&quot;cell migration&quot;</text>
<polygon fill="none" stroke="black" points="954.5,-32 954.5,-80 1063.5,-80 1063.5,-32 954.5,-32"/>
</a>
</g>
</g>
<!-- CPM_0_1&#45;&gt;DirectedMotion_2_9504528359561386930 -->
<g id="edge6" class="edge">
<title>CPM_0_1&#45;&gt;DirectedMotion_2_9504528359561386930</title>
<path fill="none" stroke="#38568c" stroke-dasharray="5,2" d="M1328.27,-557.56C1344.29,-552.11 1364.58,-545.63 1383,-541 1656.2,-472.39 2808.18,-490.26 2623,-278 2518.7,-158.45 1357.28,-78.69 1072,-60.81"/>
</g>
<!-- A2_0 -->
<g id="node3" class="node">
<title>A2_0</title>
<g id="a_node3"><a xlink:href="morph://MorpheusModel/Global/Constant[14]" xlink:title="A2">
<ellipse fill="#d3d247" stroke="black" cx="1335" cy="-655" rx="27" ry="18"/>
<text text-anchor="middle" x="1335" y="-651.3" font-family="Times,serif" font-size="14.00">A2</text>
</a>
</g>
</g>
<!-- A2_0&#45;&gt;CPM_0_1 -->
<g id="edge1" class="edge">
<title>A2_0&#45;&gt;CPM_0_1</title>
<path fill="none" stroke="#112c5f" stroke-width="2" d="M1327.89,-637.4C1324.08,-628.53 1319.24,-617.23 1314.61,-606.43"/>
<polygon fill="#112c5f" stroke="#112c5f" stroke-width="2" points="1317.79,-604.95 1310.63,-597.14 1311.35,-607.71 1317.79,-604.95"/>
</g>
<!-- A3_0 -->
<g id="node4" class="node">
<title>A3_0</title>
<g id="a_node4"><a xlink:href="morph://MorpheusModel/Global/Constant[15]" xlink:title="A3">
<ellipse fill="#d3d247" stroke="black" cx="1263" cy="-655" rx="27" ry="18"/>
<text text-anchor="middle" x="1263" y="-651.3" font-family="Times,serif" font-size="14.00">A3</text>
</a>
</g>
</g>
<!-- A3_0&#45;&gt;CPM_0_1 -->
<g id="edge2" class="edge">
<title>A3_0&#45;&gt;CPM_0_1</title>
<path fill="none" stroke="#112c5f" stroke-width="2" d="M1270.11,-637.4C1273.92,-628.53 1278.76,-617.23 1283.39,-606.43"/>
<polygon fill="#112c5f" stroke="#112c5f" stroke-width="2" points="1286.65,-607.71 1287.37,-597.14 1280.21,-604.95 1286.65,-607.71"/>
</g>
<!-- C_0 -->
<g id="node5" class="node">
<title>C_0</title>
<g id="a_node5"><a xlink:href="morph://MorpheusModel/Global/Constant[3]" xlink:title="C">
<ellipse fill="#d3d247" stroke="black" cx="2587" cy="-296" rx="27" ry="18"/>
<text text-anchor="middle" x="2587" y="-292.3" font-family="Times,serif" font-size="14.00">C</text>
</a>
</g>
</g>
<!-- System_4_1 -->
<g id="node63" class="node">
<title>System_4_1</title>
<g id="a_node63"><a xlink:href="morph://MorpheusModel/CellTypes/CellType[1]/System" xlink:title="&lt;TABLE&gt;">
<polygon fill="#fffea3" stroke="transparent" points="1063.5,-239 1004.5,-239 1004.5,-191 1063.5,-191 1063.5,-239"/>
<text text-anchor="start" x="1009" y="-223" font-family="times" font-size="15.00">System</text>
<text text-anchor="start" x="1030" y="-200" font-family="times" font-size="15.00">1</text>
<polygon fill="black" stroke="black" points="1005,-215 1005,-215 1064,-215 1064,-215 1005,-215"/>
<polygon fill="none" stroke="black" points="1004.5,-191 1004.5,-239 1063.5,-239 1063.5,-191 1004.5,-191"/>
</a>
</g>
</g>
<!-- C_0&#45;&gt;System_4_1 -->
<g id="edge9" class="edge">
<title>C_0&#45;&gt;System_4_1</title>
<path fill="none" stroke="#112c5f" stroke-width="2" d="M2567,-283.68C2561.93,-281.34 2556.39,-279.22 2551,-278 2530.91,-273.44 1086.01,-280 1068,-270 1059.16,-265.09 1052.3,-256.81 1047.13,-248.2"/>
<polygon fill="#112c5f" stroke="#112c5f" stroke-width="2" points="1050.14,-246.4 1042.35,-239.22 1043.97,-249.69 1050.14,-246.4"/>
</g>
<!-- C1_0 -->
<g id="node6" class="node">
<title>C1_0</title>
<g id="a_node6"><a xlink:href="morph://MorpheusModel/Global/Constant[16]" xlink:title="C1">
<ellipse fill="#d3d247" stroke="black" cx="1189" cy="-137" rx="27" ry="18"/>
<text text-anchor="middle" x="1189" y="-133.3" font-family="Times,serif" font-size="14.00">C1</text>
</a>
</g>
</g>
<!-- C1_0&#45;&gt;DirectedMotion_2_9504528359561386930 -->
<g id="edge3" class="edge">
<title>C1_0&#45;&gt;DirectedMotion_2_9504528359561386930</title>
<path fill="none" stroke="#112c5f" stroke-width="2" d="M1167.74,-125.81C1162.91,-123.54 1157.79,-121.16 1153,-119 1126.93,-107.24 1098,-94.68 1072.95,-83.97"/>
<polygon fill="#112c5f" stroke="#112c5f" stroke-width="2" points="1074.13,-80.67 1063.56,-79.96 1071.38,-87.11 1074.13,-80.67"/>
</g>
<!-- C2_0 -->
<g id="node7" class="node">
<title>C2_0</title>
<g id="a_node7"><a xlink:href="morph://MorpheusModel/Global/Constant[17]" xlink:title="C2">
<ellipse fill="#d3d247" stroke="black" cx="1117" cy="-137" rx="27" ry="18"/>
<text text-anchor="middle" x="1117" y="-133.3" font-family="Times,serif" font-size="14.00">C2</text>
</a>
</g>
</g>
<!-- C2_0&#45;&gt;DirectedMotion_2_9504528359561386930 -->
<g id="edge4" class="edge">
<title>C2_0&#45;&gt;DirectedMotion_2_9504528359561386930</title>
<path fill="none" stroke="#112c5f" stroke-width="2" d="M1099.17,-122.95C1085.57,-113.01 1066.32,-98.93 1049.1,-86.33"/>
<polygon fill="#112c5f" stroke="#112c5f" stroke-width="2" points="1050.98,-83.37 1040.84,-80.29 1046.84,-89.02 1050.98,-83.37"/>
</g>
<!-- C3_0 -->
<g id="node8" class="node">
<title>C3_0</title>
<g id="a_node8"><a xlink:href="morph://MorpheusModel/Global/Constant[18]" xlink:title="C3">
<ellipse fill="#d3d247" stroke="black" cx="2627" cy="-137" rx="27" ry="18"/>
<text text-anchor="middle" x="2627" y="-133.3" font-family="Times,serif" font-size="14.00">C3</text>
</a>
</g>
</g>
<!-- C3_0&#45;&gt;DirectedMotion_2_9504528359561386930 -->
<g id="edge5" class="edge">
<title>C3_0&#45;&gt;DirectedMotion_2_9504528359561386930</title>
<path fill="none" stroke="#112c5f" stroke-width="2" d="M2605.76,-125.52C2599.54,-122.92 2592.62,-120.45 2586,-119 2290.69,-54.15 1332.56,-55.03 1073.87,-56.51"/>
<polygon fill="#112c5f" stroke="#112c5f" stroke-width="2" points="1073.5,-53.01 1063.52,-56.57 1073.54,-60.01 1073.5,-53.01"/>
</g>
<!-- Cr_0 -->
<g id="node9" class="node">
<title>Cr_0</title>
<ellipse fill="#d3d247" stroke="black" cx="151" cy="-56" rx="27" ry="18"/>
<ellipse fill="none" stroke="black" cx="151" cy="-56" rx="31" ry="22"/>
<text text-anchor="middle" x="151" y="-52.3" font-family="Times,serif" font-size="14.00">Cr</text>
</g>
<!-- Cr_0&#45;&gt;Cr_0 -->
<g id="edge12" class="edge">
<title>Cr_0&#45;&gt;Cr_0</title>
<path fill="none" stroke="#38568c" stroke-dasharray="5,2" d="M174.7,-70.28C187.87,-72.95 200,-68.19 200,-56 200,-43.81 187.87,-39.05 174.7,-41.72"/>
</g>
<!-- NeighborhoodReporter_2_1 -->
<g id="node39" class="node">
<title>NeighborhoodReporter_2_1</title>
<g id="a_node39"><a xlink:href="morph://MorpheusModel/CellTypes/CellType[1]/NeighborhoodReporter[2]" xlink:title="&lt;TABLE&gt;">
<polygon fill="#fffea3" stroke="transparent" points="660,-409.5 500,-409.5 500,-361.5 660,-361.5 660,-409.5"/>
<text text-anchor="start" x="504" y="-393.5" font-family="times" font-size="15.00">NeighborhoodReporter</text>
<text text-anchor="start" x="575.5" y="-370.5" font-family="times" font-size="15.00">1</text>
<polygon fill="black" stroke="black" points="500,-385.5 500,-385.5 660,-385.5 660,-385.5 500,-385.5"/>
<polygon fill="none" stroke="black" points="500,-361.5 500,-409.5 660,-409.5 660,-361.5 500,-361.5"/>
</a>
</g>
</g>
<!-- Cr_0&#45;&gt;NeighborhoodReporter_2_1 -->
<g id="edge13" class="edge">
<title>Cr_0&#45;&gt;NeighborhoodReporter_2_1</title>
<path fill="none" stroke="#112c5f" stroke-width="2" d="M160.3,-77.27C170.28,-97.91 187.36,-130.31 207,-155 271.8,-236.48 289.61,-260.64 379,-314 421.36,-339.29 437.45,-333.66 484,-350 491.34,-352.58 498.99,-355.29 506.63,-358.01"/>
<polygon fill="#112c5f" stroke="#112c5f" stroke-width="2" points="505.68,-361.38 516.27,-361.45 508.03,-354.79 505.68,-361.38"/>
</g>
<!-- De_0 -->
<g id="node10" class="node">
<title>De_0</title>
<g id="a_node10"><a xlink:href="morph://MorpheusModel/Global/Constant[6]" xlink:title="De">
<ellipse fill="#d3d247" stroke="black" cx="2515" cy="-296" rx="27" ry="18"/>
<text text-anchor="middle" x="2515" y="-292.3" font-family="Times,serif" font-size="14.00">De</text>
</a>
</g>
</g>
<!-- De_0&#45;&gt;System_4_1 -->
<g id="edge15" class="edge">
<title>De_0&#45;&gt;System_4_1</title>
<path fill="none" stroke="#112c5f" stroke-width="2" d="M2495,-283.68C2489.93,-281.34 2484.39,-279.23 2479,-278 2459.89,-273.66 1085.13,-279.52 1068,-270 1059.16,-265.09 1052.3,-256.81 1047.13,-248.2"/>
<polygon fill="#112c5f" stroke="#112c5f" stroke-width="2" points="1050.14,-246.4 1042.35,-239.22 1043.97,-249.69 1050.14,-246.4"/>
</g>
<!-- Dr_0 -->
<g id="node11" class="node">
<title>Dr_0</title>
<g id="a_node11"><a xlink:href="morph://MorpheusModel/Global/Constant[10]" xlink:title="Dr">
<ellipse fill="#d3d247" stroke="black" cx="2443" cy="-296" rx="27" ry="18"/>
<text text-anchor="middle" x="2443" y="-292.3" font-family="Times,serif" font-size="14.00">Dr</text>
</a>
</g>
</g>
<!-- Dr_0&#45;&gt;System_4_1 -->
<g id="edge16" class="edge">
<title>Dr_0&#45;&gt;System_4_1</title>
<path fill="none" stroke="#112c5f" stroke-width="2" d="M2423,-283.68C2417.93,-281.35 2412.39,-279.23 2407,-278 2388.87,-273.88 1084.25,-279.04 1068,-270 1059.16,-265.09 1052.3,-256.81 1047.14,-248.19"/>
<polygon fill="#112c5f" stroke="#112c5f" stroke-width="2" points="1050.14,-246.4 1042.35,-239.22 1043.97,-249.69 1050.14,-246.4"/>
</g>
<!-- Dy_0 -->
<g id="node12" class="node">
<title>Dy_0</title>
<g id="a_node12"><a xlink:href="morph://MorpheusModel/Global/Constant[2]" xlink:title="Dy">
<ellipse fill="#d3d247" stroke="black" cx="2371" cy="-296" rx="27" ry="18"/>
<text text-anchor="middle" x="2371" y="-292.3" font-family="Times,serif" font-size="14.00">Dy</text>
</a>
</g>
</g>
<!-- Dy_0&#45;&gt;System_4_1 -->
<g id="edge17" class="edge">
<title>Dy_0&#45;&gt;System_4_1</title>
<path fill="none" stroke="#112c5f" stroke-width="2" d="M2350.99,-283.68C2345.93,-281.35 2340.39,-279.23 2335,-278 2300.68,-270.19 1098.76,-287.11 1068,-270 1059.16,-265.08 1052.3,-256.81 1047.14,-248.19"/>
<polygon fill="#112c5f" stroke="#112c5f" stroke-width="2" points="1050.15,-246.4 1042.35,-239.22 1043.97,-249.69 1050.15,-246.4"/>
</g>
<!-- E_0 -->
<g id="node13" class="node">
<title>E_0</title>
<ellipse fill="#d3d247" stroke="black" cx="2049" cy="-655" rx="27" ry="18"/>
<ellipse fill="none" stroke="black" cx="2049" cy="-655" rx="31" ry="22"/>
<text text-anchor="middle" x="2049" y="-651.3" font-family="Times,serif" font-size="14.00">E</text>
</g>
<!-- E_0&#45;&gt;Gnuplotter_0_50 -->
<g id="edge20" class="edge">
<title>E_0&#45;&gt;Gnuplotter_0_50</title>
<path fill="none" stroke="#112c5f" stroke-width="2" d="M2049,-632.8C2049,-623.86 2049,-613.23 2049,-603.28"/>
<polygon fill="#112c5f" stroke="#112c5f" stroke-width="2" points="2052.5,-603.26 2049,-593.26 2045.5,-603.26 2052.5,-603.26"/>
</g>
<!-- E_0&#45;&gt;CPM_0_1 -->
<g id="edge18" class="edge">
<title>E_0&#45;&gt;CPM_0_1</title>
<path fill="none" stroke="#112c5f" stroke-width="2" d="M2017.73,-654.21C1902.81,-654.7 1504.21,-653.72 1383,-618 1367.01,-613.29 1350.79,-605.01 1336.92,-596.65"/>
<polygon fill="#112c5f" stroke="#112c5f" stroke-width="2" points="1338.51,-593.51 1328.18,-591.17 1334.8,-599.45 1338.51,-593.51"/>
</g>
<!-- E_0&#45;&gt;E_0 -->
<g id="edge19" class="edge">
<title>E_0&#45;&gt;E_0</title>
<path fill="none" stroke="#38568c" stroke-dasharray="5,2" d="M2071.68,-670.12C2085.24,-673.48 2098,-668.44 2098,-655 2098,-641.56 2085.24,-636.52 2071.68,-639.88"/>
</g>
<!-- K_0 -->
<g id="node14" class="node">
<title>K_0</title>
<g id="a_node14"><a xlink:href="morph://MorpheusModel/Global/Constant[5]" xlink:title="K">
<ellipse fill="#d3d247" stroke="black" cx="2299" cy="-296" rx="27" ry="18"/>
<text text-anchor="middle" x="2299" y="-292.3" font-family="Times,serif" font-size="14.00">K</text>
</a>
</g>
</g>
<!-- K_0&#45;&gt;System_4_1 -->
<g id="edge22" class="edge">
<title>K_0&#45;&gt;System_4_1</title>
<path fill="none" stroke="#112c5f" stroke-width="2" d="M2278.99,-283.68C2273.93,-281.35 2268.39,-279.23 2263,-278 2230.63,-270.63 1097.01,-286.14 1068,-270 1059.16,-265.08 1052.3,-256.81 1047.14,-248.19"/>
<polygon fill="#112c5f" stroke="#112c5f" stroke-width="2" points="1050.15,-246.39 1042.35,-239.22 1043.97,-249.69 1050.15,-246.39"/>
</g>
<!-- Kr_0 -->
<g id="node15" class="node">
<title>Kr_0</title>
<g id="a_node15"><a xlink:href="morph://MorpheusModel/Global/Constant[9]" xlink:title="Kr">
<ellipse fill="#d3d247" stroke="black" cx="2227" cy="-296" rx="27" ry="18"/>
<text text-anchor="middle" x="2227" y="-292.3" font-family="Times,serif" font-size="14.00">Kr</text>
</a>
</g>
</g>
<!-- Kr_0&#45;&gt;System_4_1 -->
<g id="edge23" class="edge">
<title>Kr_0&#45;&gt;System_4_1</title>
<path fill="none" stroke="#112c5f" stroke-width="2" d="M2206.99,-283.69C2201.93,-281.35 2196.39,-279.23 2191,-278 2160.59,-271.07 1095.26,-285.17 1068,-270 1059.16,-265.08 1052.31,-256.8 1047.14,-248.19"/>
<polygon fill="#112c5f" stroke="#112c5f" stroke-width="2" points="1050.15,-246.39 1042.36,-239.21 1043.97,-249.68 1050.15,-246.39"/>
</g>
<!-- Rtot_0 -->
<g id="node16" class="node">
<title>Rtot_0</title>
<g id="a_node16"><a xlink:href="morph://MorpheusModel/Global/Constant[22]" xlink:title="Rtot">
<ellipse fill="#d3d247" stroke="black" cx="2155" cy="-296" rx="27" ry="18"/>
<text text-anchor="middle" x="2155" y="-292.3" font-family="Times,serif" font-size="14.00">Rtot</text>
</a>
</g>
</g>
<!-- Rtot_0&#45;&gt;System_4_1 -->
<g id="edge30" class="edge">
<title>Rtot_0&#45;&gt;System_4_1</title>
<path fill="none" stroke="#112c5f" stroke-width="2" d="M2134.99,-283.69C2129.93,-281.35 2124.39,-279.23 2119,-278 2090.54,-271.5 1093.51,-284.21 1068,-270 1059.16,-265.08 1052.31,-256.8 1047.14,-248.18"/>
<polygon fill="#112c5f" stroke="#112c5f" stroke-width="2" points="1050.15,-246.39 1042.36,-239.21 1043.97,-249.68 1050.15,-246.39"/>
</g>
<!-- Ytot_0 -->
<g id="node17" class="node">
<title>Ytot_0</title>
<g id="a_node17"><a xlink:href="morph://MorpheusModel/Global/Constant[21]" xlink:title="Ytot">
<ellipse fill="#d3d247" stroke="black" cx="2083" cy="-296" rx="27" ry="18"/>
<text text-anchor="middle" x="2083" y="-292.3" font-family="Times,serif" font-size="14.00">Ytot</text>
</a>
</g>
</g>
<!-- Ytot_0&#45;&gt;System_4_1 -->
<g id="edge41" class="edge">
<title>Ytot_0&#45;&gt;System_4_1</title>
<path fill="none" stroke="#112c5f" stroke-width="2" d="M2062.99,-283.69C2057.93,-281.35 2052.39,-279.23 2047,-278 2020.49,-271.94 1091.75,-283.24 1068,-270 1059.17,-265.08 1052.31,-256.8 1047.14,-248.18"/>
<polygon fill="#112c5f" stroke="#112c5f" stroke-width="2" points="1050.15,-246.39 1042.36,-239.21 1043.97,-249.68 1050.15,-246.39"/>
</g>
<!-- alphaR_0 -->
<g id="node18" class="node">
<title>alphaR_0</title>
<g id="a_node18"><a xlink:href="morph://MorpheusModel/Global/Constant[12]" xlink:title="alphaR">
<ellipse fill="#d3d247" stroke="black" cx="2002" cy="-296" rx="36" ry="18"/>
<text text-anchor="middle" x="2002" y="-292.3" font-family="Times,serif" font-size="14.00">alphaR</text>
</a>
</g>
</g>
<!-- alphaR_0&#45;&gt;System_4_1 -->
<g id="edge42" class="edge">
<title>alphaR_0&#45;&gt;System_4_1</title>
<path fill="none" stroke="#112c5f" stroke-width="2" d="M1975.8,-283.34C1969.74,-281.14 1963.24,-279.17 1957,-278 1932.73,-273.45 1089.57,-282.03 1068,-270 1059.17,-265.07 1052.31,-256.79 1047.14,-248.18"/>
<polygon fill="#112c5f" stroke="#112c5f" stroke-width="2" points="1050.15,-246.38 1042.36,-239.2 1043.98,-249.68 1050.15,-246.38"/>
</g>
<!-- cell_type_0&#45;&gt;NeighborhoodReporter_2_1 -->
<g id="edge54" class="edge">
<title>cell_type_0&#45;&gt;NeighborhoodReporter_2_1</title>
<path fill="none" stroke="#112c5f" stroke-width="2" d="M1222.19,-464.81C1214.76,-461.73 1206.73,-458.86 1199,-457 978.1,-403.75 912.21,-463.58 689,-421 677.5,-418.81 665.51,-415.79 653.87,-412.45"/>
<polygon fill="#112c5f" stroke="#112c5f" stroke-width="2" points="654.78,-409.07 644.2,-409.58 652.79,-415.78 654.78,-409.07"/>
</g>
<!-- NeighborhoodReporter_2_0 -->
<g id="node40" class="node">
<title>NeighborhoodReporter_2_0</title>
<g id="a_node40"><a xlink:href="morph://MorpheusModel/CellTypes/CellType[1]/NeighborhoodReporter[1]" xlink:title="&lt;TABLE&gt;">
<polygon fill="#fffea3" stroke="transparent" points="448,-505 288,-505 288,-457 448,-457 448,-505"/>
<text text-anchor="start" x="292" y="-489" font-family="times" font-size="15.00">NeighborhoodReporter</text>
<text text-anchor="start" x="361" y="-466" font-family="times" font-size="15.00">&#45;1</text>
<polygon fill="black" stroke="black" points="288,-481 288,-481 448,-481 448,-481 288,-481"/>
<polygon fill="none" stroke="black" points="288,-457 288,-505 448,-505 448,-457 288,-457"/>
</a>
</g>
</g>
<!-- cell_type_0&#45;&gt;NeighborhoodReporter_2_0 -->
<g id="edge53" class="edge">
<title>cell_type_0&#45;&gt;NeighborhoodReporter_2_0</title>
<path fill="none" stroke="#112c5f" stroke-width="2" d="M1231.05,-500.32C1219.64,-509.07 1204.97,-518.47 1190,-523 1113.01,-546.31 544.8,-539.17 466,-523 451.56,-520.04 436.62,-514.85 422.9,-509.12"/>
<polygon fill="#112c5f" stroke="#112c5f" stroke-width="2" points="424.17,-505.86 413.6,-505.08 421.38,-512.28 424.17,-505.86"/>
</g>
<!-- celltype_dividingcell_id_0 -->
<g id="node21" class="node">
<title>celltype_dividingcell_id_0</title>
<ellipse fill="#d3d247" stroke="black" cx="108" cy="-569" rx="92.08" ry="18"/>
<text text-anchor="middle" x="108" y="-565.3" font-family="Times,serif" font-size="14.00">celltype.dividingcell.id</text>
</g>
<!-- celltype_dividingcell_id_0&#45;&gt;NeighborhoodReporter_2_0 -->
<g id="edge58" class="edge">
<title>celltype_dividingcell_id_0&#45;&gt;NeighborhoodReporter_2_0</title>
<path fill="none" stroke="#112c5f" stroke-width="2" d="M152.7,-553.22C189.96,-540.89 243.97,-523.02 288.57,-508.27"/>
<polygon fill="#112c5f" stroke="#112c5f" stroke-width="2" points="289.83,-511.54 298.23,-505.08 287.63,-504.9 289.83,-511.54"/>
</g>
<!-- celltype_medium_id_0 -->
<g id="node22" class="node">
<title>celltype_medium_id_0</title>
<ellipse fill="#d3d247" stroke="black" cx="120" cy="-481" rx="79.89" ry="18"/>
<text text-anchor="middle" x="120" y="-477.3" font-family="Times,serif" font-size="14.00">celltype.medium.id</text>
</g>
<!-- celltype_medium_id_0&#45;&gt;NeighborhoodReporter_2_1 -->
<g id="edge59" class="edge">
<title>celltype_medium_id_0&#45;&gt;NeighborhoodReporter_2_1</title>
<path fill="none" stroke="#112c5f" stroke-width="2" d="M165.94,-466.18C178.22,-462.83 191.55,-459.49 204,-457 327.03,-432.37 362.02,-450.39 484,-421 493.33,-418.75 503.01,-415.91 512.47,-412.83"/>
<polygon fill="#112c5f" stroke="#112c5f" stroke-width="2" points="513.87,-416.05 522.23,-409.54 511.64,-409.41 513.87,-416.05"/>
</g>
<!-- frac_0 -->
<g id="node23" class="node">
<title>frac_0</title>
<g id="a_node23"><a xlink:href="morph://MorpheusModel/Global/Constant[20]" xlink:title="frac">
<ellipse fill="#d3d247" stroke="black" cx="1921" cy="-296" rx="27" ry="18"/>
<text text-anchor="middle" x="1921" y="-292.3" font-family="Times,serif" font-size="14.00">frac</text>
</a>
</g>
</g>
<!-- frac_0&#45;&gt;System_4_1 -->
<g id="edge62" class="edge">
<title>frac_0&#45;&gt;System_4_1</title>
<path fill="none" stroke="#112c5f" stroke-width="2" d="M1900.99,-283.7C1895.93,-281.36 1890.39,-279.24 1885,-278 1862.88,-272.93 1087.81,-281.07 1068,-270 1059.17,-265.07 1052.31,-256.79 1047.15,-248.17"/>
<polygon fill="#112c5f" stroke="#112c5f" stroke-width="2" points="1050.16,-246.38 1042.36,-239.2 1043.98,-249.67 1050.16,-246.38"/>
</g>
<!-- h_0 -->
<g id="node24" class="node">
<title>h_0</title>
<g id="a_node24"><a xlink:href="morph://MorpheusModel/Global/Constant[7]" xlink:title="h">
<ellipse fill="#d3d247" stroke="black" cx="1849" cy="-296" rx="27" ry="18"/>
<text text-anchor="middle" x="1849" y="-292.3" font-family="Times,serif" font-size="14.00">h</text>
</a>
</g>
</g>
<!-- h_0&#45;&gt;System_4_1 -->
<g id="edge63" class="edge">
<title>h_0&#45;&gt;System_4_1</title>
<path fill="none" stroke="#112c5f" stroke-width="2" d="M1828.99,-283.7C1823.93,-281.36 1818.39,-279.24 1813,-278 1792.83,-273.36 1086.06,-280.1 1068,-270 1059.17,-265.06 1052.32,-256.78 1047.15,-248.17"/>
<polygon fill="#112c5f" stroke="#112c5f" stroke-width="2" points="1050.16,-246.37 1042.36,-239.2 1043.98,-249.67 1050.16,-246.37"/>
</g>
<!-- ke_0 -->
<g id="node25" class="node">
<title>ke_0</title>
<g id="a_node25"><a xlink:href="morph://MorpheusModel/Global/Constant[4]" xlink:title="ke">
<ellipse fill="#d3d247" stroke="black" cx="1777" cy="-296" rx="27" ry="18"/>
<text text-anchor="middle" x="1777" y="-292.3" font-family="Times,serif" font-size="14.00">ke</text>
</a>
</g>
</g>
<!-- ke_0&#45;&gt;System_4_1 -->
<g id="edge64" class="edge">
<title>ke_0&#45;&gt;System_4_1</title>
<path fill="none" stroke="#112c5f" stroke-width="2" d="M1756.99,-283.7C1751.92,-281.37 1746.39,-279.24 1741,-278 1722.78,-273.8 1084.31,-279.13 1068,-270 1059.18,-265.06 1052.32,-256.78 1047.15,-248.16"/>
<polygon fill="#112c5f" stroke="#112c5f" stroke-width="2" points="1050.16,-246.37 1042.37,-239.19 1043.99,-249.66 1050.16,-246.37"/>
</g>
<!-- kr_0 -->
<g id="node26" class="node">
<title>kr_0</title>
<g id="a_node26"><a xlink:href="morph://MorpheusModel/Global/Constant[8]" xlink:title="kr">
<ellipse fill="#d3d247" stroke="black" cx="1705" cy="-296" rx="27" ry="18"/>
<text text-anchor="middle" x="1705" y="-292.3" font-family="Times,serif" font-size="14.00">kr</text>
</a>
</g>
</g>
<!-- kr_0&#45;&gt;System_4_1 -->
<g id="edge65" class="edge">
<title>kr_0&#45;&gt;System_4_1</title>
<path fill="none" stroke="#112c5f" stroke-width="2" d="M1684.99,-283.71C1679.92,-281.37 1674.39,-279.25 1669,-278 1636.47,-270.48 1097.12,-286.33 1068,-270 1059.18,-265.05 1052.33,-256.77 1047.16,-248.15"/>
<polygon fill="#112c5f" stroke="#112c5f" stroke-width="2" points="1050.17,-246.36 1042.37,-239.18 1043.99,-249.65 1050.17,-246.36"/>
</g>
<!-- ky_0 -->
<g id="node27" class="node">
<title>ky_0</title>
<g id="a_node27"><a xlink:href="morph://MorpheusModel/Global/Constant[0]" xlink:title="ky">
<ellipse fill="#d3d247" stroke="black" cx="1633" cy="-296" rx="27" ry="18"/>
<text text-anchor="middle" x="1633" y="-292.3" font-family="Times,serif" font-size="14.00">ky</text>
</a>
</g>
</g>
<!-- ky_0&#45;&gt;System_4_1 -->
<g id="edge66" class="edge">
<title>ky_0&#45;&gt;System_4_1</title>
<path fill="none" stroke="#112c5f" stroke-width="2" d="M1612.99,-283.72C1607.92,-281.38 1602.39,-279.25 1597,-278 1568.37,-271.35 1093.62,-284.4 1068,-270 1059.18,-265.05 1052.33,-256.76 1047.16,-248.14"/>
<polygon fill="#112c5f" stroke="#112c5f" stroke-width="2" points="1050.17,-246.35 1042.38,-239.18 1044,-249.65 1050.17,-246.35"/>
</g>
<!-- kye_0 -->
<g id="node28" class="node">
<title>kye_0</title>
<g id="a_node28"><a xlink:href="morph://MorpheusModel/Global/Constant[1]" xlink:title="kye">
<ellipse fill="#d3d247" stroke="black" cx="1561" cy="-296" rx="27" ry="18"/>
<text text-anchor="middle" x="1561" y="-292.3" font-family="Times,serif" font-size="14.00">kye</text>
</a>
</g>
</g>
<!-- kye_0&#45;&gt;System_4_1 -->
<g id="edge67" class="edge">
<title>kye_0&#45;&gt;System_4_1</title>
<path fill="none" stroke="#112c5f" stroke-width="2" d="M1540.98,-283.73C1535.92,-281.39 1530.38,-279.26 1525,-278 1500.27,-272.23 1090.12,-282.47 1068,-270 1059.19,-265.03 1052.34,-256.74 1047.17,-248.13"/>
<polygon fill="#112c5f" stroke="#112c5f" stroke-width="2" points="1050.18,-246.34 1042.38,-239.16 1044.01,-249.63 1050.18,-246.34"/>
</g>
<!-- kyr_0 -->
<g id="node29" class="node">
<title>kyr_0</title>
<g id="a_node29"><a xlink:href="morph://MorpheusModel/Global/Constant[13]" xlink:title="kyr">
<ellipse fill="#d3d247" stroke="black" cx="1489" cy="-296" rx="27" ry="18"/>
<text text-anchor="middle" x="1489" y="-292.3" font-family="Times,serif" font-size="14.00">kyr</text>
</a>
</g>
</g>
<!-- kyr_0&#45;&gt;System_4_1 -->
<g id="edge68" class="edge">
<title>kyr_0&#45;&gt;System_4_1</title>
<path fill="none" stroke="#112c5f" stroke-width="2" d="M1468.98,-283.74C1463.92,-281.4 1458.38,-279.27 1453,-278 1432.17,-273.1 1086.62,-280.53 1068,-270 1059.2,-265.02 1052.35,-256.73 1047.18,-248.11"/>
<polygon fill="#112c5f" stroke="#112c5f" stroke-width="2" points="1050.19,-246.32 1042.39,-239.15 1044.02,-249.62 1050.19,-246.32"/>
</g>
<!-- n_0 -->
<g id="node30" class="node">
<title>n_0</title>
<g id="a_node30"><a xlink:href="morph://MorpheusModel/Global/Constant[11]" xlink:title="n">
<ellipse fill="#d3d247" stroke="black" cx="1417" cy="-296" rx="27" ry="18"/>
<text text-anchor="middle" x="1417" y="-292.3" font-family="Times,serif" font-size="14.00">n</text>
</a>
</g>
</g>
<!-- n_0&#45;&gt;System_4_1 -->
<g id="edge69" class="edge">
<title>n_0&#45;&gt;System_4_1</title>
<path fill="none" stroke="#112c5f" stroke-width="2" d="M1396.98,-283.76C1391.91,-281.42 1386.38,-279.28 1381,-278 1347.15,-269.95 1098.24,-287.2 1068,-270 1059.21,-265 1052.36,-256.7 1047.2,-248.09"/>
<polygon fill="#112c5f" stroke="#112c5f" stroke-width="2" points="1050.21,-246.29 1042.4,-239.13 1044.03,-249.59 1050.21,-246.29"/>
</g>
<!-- shareprob_0 -->
<g id="node31" class="node">
<title>shareprob_0</title>
<g id="a_node31"><a xlink:href="morph://MorpheusModel/Global/Constant[23]" xlink:title="shareprob">
<ellipse fill="#d3d247" stroke="black" cx="1327" cy="-296" rx="45.49" ry="18"/>
<text text-anchor="middle" x="1327" y="-292.3" font-family="Times,serif" font-size="14.00">shareprob</text>
</a>
</g>
</g>
<!-- shareprob_0&#45;&gt;System_4_1 -->
<g id="edge70" class="edge">
<title>shareprob_0&#45;&gt;System_4_1</title>
<path fill="none" stroke="#112c5f" stroke-width="2" d="M1293.31,-283.78C1285.11,-281.48 1276.31,-279.34 1268,-278 1246.04,-274.45 1087.25,-281.14 1068,-270 1059.25,-264.94 1052.41,-256.62 1047.24,-248.01"/>
<polygon fill="#112c5f" stroke="#112c5f" stroke-width="2" points="1050.25,-246.22 1042.44,-239.06 1044.08,-249.52 1050.25,-246.22"/>
</g>
<!-- size_0 -->
<g id="node32" class="node">
<title>size_0</title>
<ellipse fill="#b5b426" stroke="black" cx="1419" cy="-569" rx="27" ry="18"/>
<text text-anchor="middle" x="1419" y="-565.3" font-family="Times,serif" font-size="14.00">size</text>
</g>
<!-- size_x_0 -->
<g id="node33" class="node">
<title>size_x_0</title>
<ellipse fill="#d3d247" stroke="black" cx="1419" cy="-481" rx="31.4" ry="18"/>
<text text-anchor="middle" x="1419" y="-477.3" font-family="Times,serif" font-size="14.00">size.x</text>
</g>
<!-- size_0&#45;&gt;size_x_0 -->
<g id="edge71" class="edge">
<title>size_0&#45;&gt;size_x_0</title>
<path fill="none" stroke="#38568c" stroke-dasharray="5,2" d="M1419,-550.6C1419,-535.58 1419,-514.01 1419,-499.08"/>
</g>
<!-- CellDeath_2_5386813627640286968_1 -->
<g id="node38" class="node">
<title>CellDeath_2_5386813627640286968_1</title>
<g id="a_node38"><a xlink:href="morph://MorpheusModel/CellTypes/CellType[1]/CellDeath" xlink:title="&lt;TABLE&gt;">
<polygon fill="#fffea3" stroke="transparent" points="1072,-421 820,-421 820,-350 1072,-350 1072,-421"/>
<text text-anchor="start" x="913.5" y="-404.5" font-family="times" font-size="15.00">CellDeath</text>
<text text-anchor="start" x="824" y="-382.5" font-family="times" font-style="italic" font-size="15.00">&quot;delete cells near right domain edge&quot;</text>
<text text-anchor="start" x="941.5" y="-358.5" font-family="times" font-size="15.00">1</text>
<polygon fill="black" stroke="black" points="820,-373.5 820,-373.5 1072,-373.5 1072,-373.5 820,-373.5"/>
<polygon fill="none" stroke="black" points="820,-350 820,-421 1072,-421 1072,-350 820,-350"/>
</a>
</g>
</g>
<!-- size_x_0&#45;&gt;CellDeath_2_5386813627640286968_1 -->
<g id="edge72" class="edge">
<title>size_x_0&#45;&gt;CellDeath_2_5386813627640286968_1</title>
<path fill="none" stroke="#112c5f" stroke-width="2" d="M1399.4,-466.63C1393.13,-462.94 1386,-459.32 1379,-457 1253.42,-415.38 1211.26,-444.93 1082.06,-422.08"/>
<polygon fill="#112c5f" stroke="#112c5f" stroke-width="2" points="1082.67,-418.63 1072.2,-420.26 1081.4,-425.51 1082.67,-418.63"/>
</g>
<!-- size_x_0&#45;&gt;System_4_1 -->
<g id="edge73" class="edge">
<title>size_x_0&#45;&gt;System_4_1</title>
<path fill="none" stroke="#112c5f" stroke-width="2" d="M1403.71,-464.92C1375.73,-436.83 1315.25,-373.91 1273,-314 1262.45,-299.04 1268.57,-287.62 1253,-278 1217.99,-256.37 1103.59,-290.66 1068,-270 1059.25,-264.92 1052.42,-256.6 1047.25,-247.99"/>
<polygon fill="#112c5f" stroke="#112c5f" stroke-width="2" points="1050.26,-246.2 1042.45,-239.04 1044.09,-249.51 1050.26,-246.2"/>
</g>
<!-- stoptime_0 -->
<g id="node34" class="node">
<title>stoptime_0</title>
<ellipse fill="#d3d247" stroke="black" cx="1202" cy="-296" rx="41.69" ry="18"/>
<text text-anchor="middle" x="1202" y="-292.3" font-family="Times,serif" font-size="14.00">stoptime</text>
</g>
<!-- stoptime_0&#45;&gt;System_4_1 -->
<g id="edge74" class="edge">
<title>stoptime_0&#45;&gt;System_4_1</title>
<path fill="none" stroke="#112c5f" stroke-width="2" d="M1171.57,-283.61C1164.87,-281.46 1157.76,-279.43 1151,-278 1132.87,-274.16 1083.77,-279.72 1068,-270 1059.46,-264.74 1052.71,-256.44 1047.55,-247.92"/>
<polygon fill="#112c5f" stroke="#112c5f" stroke-width="2" points="1050.59,-246.18 1042.74,-239.07 1044.44,-249.52 1050.59,-246.18"/>
</g>
<!-- time_0 -->
<g id="node35" class="node">
<title>time_0</title>
<g id="a_node35"><a xlink:href="morph://MorpheusModel/Time/TimeSymbol" xlink:title="time">
<ellipse fill="#d3d247" stroke="black" cx="1343" cy="-481" rx="27" ry="18"/>
<text text-anchor="middle" x="1343" y="-477.3" font-family="Times,serif" font-size="14.00">time</text>
</a>
</g>
</g>
<!-- CellDivision_2_1 -->
<g id="node41" class="node">
<title>CellDivision_2_1</title>
<g id="a_node41"><a xlink:href="morph://MorpheusModel/CellTypes/CellType[1]/CellDivision" xlink:title="&lt;TABLE&gt;">
<polygon fill="#fffea3" stroke="transparent" points="782,-409.5 698,-409.5 698,-361.5 782,-361.5 782,-409.5"/>
<text text-anchor="start" x="702" y="-393.5" font-family="times" font-size="15.00">CellDivision</text>
<text text-anchor="start" x="735.5" y="-370.5" font-family="times" font-size="15.00">1</text>
<polygon fill="black" stroke="black" points="698,-385.5 698,-385.5 782,-385.5 782,-385.5 698,-385.5"/>
<polygon fill="none" stroke="black" points="698,-361.5 698,-409.5 782,-409.5 782,-361.5 698,-361.5"/>
</a>
</g>
</g>
<!-- time_0&#45;&gt;CellDivision_2_1 -->
<g id="edge75" class="edge">
<title>time_0&#45;&gt;CellDivision_2_1</title>
<path fill="none" stroke="#112c5f" stroke-width="2" d="M1325.95,-466.66C1320.23,-462.88 1313.62,-459.2 1307,-457 1097.23,-387.37 1024.46,-478.33 811,-421 804.08,-419.14 797.03,-416.61 790.19,-413.75"/>
<polygon fill="#112c5f" stroke="#112c5f" stroke-width="2" points="791.58,-410.53 781.02,-409.68 788.74,-416.93 791.58,-410.53"/>
</g>
<!-- tlim_0 -->
<g id="node36" class="node">
<title>tlim_0</title>
<g id="a_node36"><a xlink:href="morph://MorpheusModel/Global/Constant[19]" xlink:title="tlim">
<ellipse fill="#d3d247" stroke="black" cx="1115" cy="-296" rx="27" ry="18"/>
<text text-anchor="middle" x="1115" y="-292.3" font-family="Times,serif" font-size="14.00">tlim</text>
</a>
</g>
</g>
<!-- tlim_0&#45;&gt;System_4_1 -->
<g id="edge76" class="edge">
<title>tlim_0&#45;&gt;System_4_1</title>
<path fill="none" stroke="#112c5f" stroke-width="2" d="M1094.72,-283.73C1091.16,-281.8 1087.48,-279.82 1084,-278 1076.96,-274.31 1073.89,-275.34 1068,-270 1061.08,-263.73 1055.03,-255.74 1050.03,-247.83"/>
<polygon fill="#112c5f" stroke="#112c5f" stroke-width="2" points="1052.94,-245.87 1044.84,-239.04 1046.91,-249.43 1052.94,-245.87"/>
</g>
<!-- MotilityReporter_2_50 -->
<g id="node37" class="node">
<title>MotilityReporter_2_50</title>
<g id="a_node37"><a xlink:href="morph://MorpheusModel/CellTypes/CellType[1]/MotilityReporter" xlink:title="&lt;TABLE&gt;">
<polygon fill="#fffea3" stroke="transparent" points="580,-505 466,-505 466,-457 580,-457 580,-505"/>
<text text-anchor="start" x="470" y="-489" font-family="times" font-size="15.00">MotilityReporter</text>
<text text-anchor="start" x="514.5" y="-466" font-family="times" font-size="15.00">50</text>
<polygon fill="black" stroke="black" points="466,-481 466,-481 580,-481 580,-481 466,-481"/>
<polygon fill="none" stroke="black" points="466,-457 466,-505 580,-505 580,-457 466,-457"/>
</a>
</g>
</g>
<!-- d_2 -->
<g id="node56" class="node">
<title>d_2</title>
<g id="a_node56"><a xlink:href="morph://MorpheusModel/CellTypes/CellType[1]/PropertyVector" xlink:title="d">
<ellipse fill="#b5b426" stroke="black" cx="448" cy="-385.5" rx="27" ry="18"/>
<text text-anchor="middle" x="448" y="-381.8" font-family="Times,serif" font-size="14.00">d</text>
</a>
</g>
</g>
<!-- MotilityReporter_2_50&#45;&gt;d_2 -->
<g id="edge25" class="edge">
<title>MotilityReporter_2_50&#45;&gt;d_2</title>
<path fill="none" stroke="#8f100d" stroke-width="3" d="M504.46,-456.89C492.93,-442.51 478.15,-424.09 466.61,-409.7"/>
<polygon fill="#8f100d" stroke="#8f100d" stroke-width="3" points="469.22,-407.36 460.23,-401.75 463.76,-411.74 469.22,-407.36"/>
</g>
<!-- cell_center_2 -->
<g id="node51" class="node">
<title>cell_center_2</title>
<ellipse fill="#b5b426" stroke="black" cx="743" cy="-569" rx="47.39" ry="18"/>
<text text-anchor="middle" x="743" y="-565.3" font-family="Times,serif" font-size="14.00">cell.center</text>
</g>
<!-- CellDeath_2_5386813627640286968_1&#45;&gt;cell_center_2 -->
<g id="edge10" class="edge">
<title>CellDeath_2_5386813627640286968_1&#45;&gt;cell_center_2</title>
<path fill="none" stroke="#8f100d" stroke-width="3" d="M933.23,-421.18C922.21,-447.08 904.1,-481.85 879,-505 853.68,-528.36 818.17,-544.4 789.79,-554.46"/>
<polygon fill="#8f100d" stroke="#8f100d" stroke-width="3" points="788.41,-551.23 780.08,-557.76 790.67,-557.85 788.41,-551.23"/>
</g>
<!-- M_2 -->
<g id="node45" class="node">
<title>M_2</title>
<g id="a_node45"><a xlink:href="morph://MorpheusModel/CellTypes/CellType[1]/Property[9]" xlink:title="M">
<ellipse fill="#d3d247" stroke="black" cx="684" cy="-296" rx="27" ry="18"/>
<text text-anchor="middle" x="684" y="-292.3" font-family="Times,serif" font-size="14.00">M</text>
</a>
</g>
</g>
<!-- NeighborhoodReporter_2_1&#45;&gt;M_2 -->
<g id="edge27" class="edge">
<title>NeighborhoodReporter_2_1&#45;&gt;M_2</title>
<path fill="none" stroke="#8f100d" stroke-width="3" d="M607.6,-361.28C624,-347.48 644.58,-330.17 660.25,-316.98"/>
<polygon fill="#8f100d" stroke="#8f100d" stroke-width="3" points="662.55,-319.62 667.95,-310.5 658.04,-314.26 662.55,-319.62"/>
</g>
<!-- av_2 -->
<g id="node48" class="node">
<title>av_2</title>
<g id="a_node48"><a xlink:href="morph://MorpheusModel/CellTypes/CellType[1]/Property[11]" xlink:title="av">
<ellipse fill="#d3d247" stroke="black" cx="612" cy="-296" rx="27" ry="18"/>
<text text-anchor="middle" x="612" y="-292.3" font-family="Times,serif" font-size="14.00">av</text>
</a>
</g>
</g>
<!-- NeighborhoodReporter_2_1&#45;&gt;av_2 -->
<g id="edge28" class="edge">
<title>NeighborhoodReporter_2_1&#45;&gt;av_2</title>
<path fill="none" stroke="#8f100d" stroke-width="3" d="M588.58,-361.05C592.86,-349.35 598.05,-335.15 602.46,-323.1"/>
<polygon fill="#8f100d" stroke="#8f100d" stroke-width="3" points="605.79,-324.17 605.94,-313.58 599.21,-321.77 605.79,-324.17"/>
</g>
<!-- neigh_2 -->
<g id="node59" class="node">
<title>neigh_2</title>
<g id="a_node59"><a xlink:href="morph://MorpheusModel/CellTypes/CellType[1]/Property[10]" xlink:title="neigh">
<ellipse fill="#d3d247" stroke="black" cx="368" cy="-385.5" rx="30.59" ry="18"/>
<text text-anchor="middle" x="368" y="-381.8" font-family="Times,serif" font-size="14.00">neigh</text>
</a>
</g>
</g>
<!-- NeighborhoodReporter_2_0&#45;&gt;neigh_2 -->
<g id="edge26" class="edge">
<title>NeighborhoodReporter_2_0&#45;&gt;neigh_2</title>
<path fill="none" stroke="#8f100d" stroke-width="3" d="M368,-456.89C368,-443.92 368,-427.65 368,-414.02"/>
<polygon fill="#8f100d" stroke="#8f100d" stroke-width="3" points="371.5,-413.77 368,-403.77 364.5,-413.77 371.5,-413.77"/>
</g>
<!-- CellDivision_2_1&#45;&gt;cell_center_2 -->
<g id="edge11" class="edge">
<title>CellDivision_2_1&#45;&gt;cell_center_2</title>
<path fill="none" stroke="#8f100d" stroke-width="3" d="M740.38,-409.59C740.94,-443.09 741.96,-505.06 742.55,-540.75"/>
<polygon fill="#8f100d" stroke="#8f100d" stroke-width="3" points="739.05,-540.98 742.72,-550.92 746.05,-540.87 739.05,-540.98"/>
</g>
<!-- Cr_2 -->
<g id="node43" class="node">
<title>Cr_2</title>
<g id="a_node43"><a xlink:href="morph://MorpheusModel/CellTypes/CellType[1]/Property[3]" xlink:title="Cr">
<ellipse fill="#d3d247" stroke="black" cx="901" cy="-137" rx="27" ry="18"/>
<text text-anchor="middle" x="901" y="-133.3" font-family="Times,serif" font-size="14.00">Cr</text>
</a>
</g>
</g>
<!-- Cr_2&#45;&gt;Cr_0 -->
<g id="edge14" class="edge">
<title>Cr_2&#45;&gt;Cr_0</title>
<path fill="none" stroke="#38568c" stroke-dasharray="5,2" d="M880.54,-124.81C875.58,-122.53 870.2,-120.41 865,-119 733.02,-83.34 301.51,-63.22 181.96,-58.23"/>
</g>
<!-- E_2 -->
<g id="node44" class="node">
<title>E_2</title>
<g id="a_node44"><a xlink:href="morph://MorpheusModel/CellTypes/CellType[1]/Property[1]" xlink:title="E">
<ellipse fill="#d3d247" stroke="black" cx="1045" cy="-137" rx="27" ry="18"/>
<text text-anchor="middle" x="1045" y="-133.3" font-family="Times,serif" font-size="14.00">E</text>
</a>
</g>
</g>
<!-- E_2&#45;&gt;E_0 -->
<g id="edge21" class="edge">
<title>E_2&#45;&gt;E_0</title>
<path fill="none" stroke="#38568c" stroke-dasharray="5,2" d="M1063.79,-149.93C1067.7,-151.94 1071.88,-153.77 1076,-155 1244.54,-205.38 2653,-119.09 2653,-295 2653,-482 2653,-482 2653,-482 2653,-602.48 2202.87,-643.13 2079.78,-651.99"/>
</g>
<!-- M_2&#45;&gt;System_4_1 -->
<g id="edge24" class="edge">
<title>M_2&#45;&gt;System_4_1</title>
<path fill="none" stroke="#112c5f" stroke-width="2" d="M705.23,-284.48C711.45,-281.87 718.37,-279.42 725,-278 755,-271.57 974.46,-285.39 1001,-270 1009.68,-264.97 1016.36,-256.66 1021.37,-248.05"/>
<polygon fill="#112c5f" stroke="#112c5f" stroke-width="2" points="1024.52,-249.58 1026,-239.09 1018.3,-246.37 1024.52,-249.58"/>
</g>
<!-- R_2 -->
<g id="node46" class="node">
<title>R_2</title>
<g id="a_node46"><a xlink:href="morph://MorpheusModel/CellTypes/CellType[1]/Property[2]" xlink:title="R">
<ellipse fill="#d3d247" stroke="black" cx="973" cy="-137" rx="27" ry="18"/>
<text text-anchor="middle" x="973" y="-133.3" font-family="Times,serif" font-size="14.00">R</text>
</a>
</g>
</g>
<!-- R_2&#45;&gt;DirectedMotion_2_9504528359561386930 -->
<g id="edge29" class="edge">
<title>R_2&#45;&gt;DirectedMotion_2_9504528359561386930</title>
<path fill="none" stroke="#112c5f" stroke-width="2" d="M980.46,-119.63C984.43,-110.91 989.46,-99.87 994.19,-89.49"/>
<polygon fill="#112c5f" stroke="#112c5f" stroke-width="2" points="997.45,-90.79 998.41,-80.24 991.08,-87.89 997.45,-90.79"/>
</g>
<!-- Y_2 -->
<g id="node47" class="node">
<title>Y_2</title>
<g id="a_node47"><a xlink:href="morph://MorpheusModel/CellTypes/CellType[1]/Property[0]" xlink:title="Y">
<ellipse fill="#d3d247" stroke="black" cx="243" cy="-137" rx="27" ry="18"/>
<text text-anchor="middle" x="243" y="-133.3" font-family="Times,serif" font-size="14.00">Y</text>
</a>
</g>
</g>
<!-- av_2&#45;&gt;System_4_1 -->
<g id="edge43" class="edge">
<title>av_2&#45;&gt;System_4_1</title>
<path fill="none" stroke="#112c5f" stroke-width="2" d="M632.02,-283.74C637.08,-281.41 642.62,-279.27 648,-278 667.09,-273.49 984,-279.79 1001,-270 1009.69,-264.99 1016.38,-256.69 1021.39,-248.08"/>
<polygon fill="#112c5f" stroke="#112c5f" stroke-width="2" points="1024.54,-249.61 1026.02,-239.12 1018.32,-246.4 1024.54,-249.61"/>
</g>
<!-- avspeed_2 -->
<g id="node49" class="node">
<title>avspeed_2</title>
<g id="a_node49"><a xlink:href="morph://MorpheusModel/CellTypes/CellType[1]/Property[5]" xlink:title="avspeed">
<ellipse fill="#d3d247" stroke="black" cx="327" cy="-137" rx="38.99" ry="18"/>
<text text-anchor="middle" x="327" y="-133.3" font-family="Times,serif" font-size="14.00">avspeed</text>
</a>
</g>
</g>
<!-- avspeed2_2 -->
<g id="node50" class="node">
<title>avspeed2_2</title>
<g id="a_node50"><a xlink:href="morph://MorpheusModel/CellTypes/CellType[1]/Property[7]" xlink:title="avspeed2">
<ellipse fill="#d3d247" stroke="black" cx="428" cy="-137" rx="43.59" ry="18"/>
<text text-anchor="middle" x="428" y="-133.3" font-family="Times,serif" font-size="14.00">avspeed2</text>
</a>
</g>
</g>
<!-- cell_center_2&#45;&gt;cell_center_0 -->
<g id="edge47" class="edge">
<title>cell_center_2&#45;&gt;cell_center_0</title>
<path fill="none" stroke="#38568c" stroke-dasharray="5,2" d="M787.86,-562.82C853.75,-554.51 980.14,-535.92 1084,-505 1090.84,-502.96 1097.99,-500.35 1104.79,-497.63"/>
</g>
<!-- cell_center_2&#45;&gt;MotilityReporter_2_50 -->
<g id="edge44" class="edge">
<title>cell_center_2&#45;&gt;MotilityReporter_2_50</title>
<path fill="none" stroke="#112c5f" stroke-width="2" d="M717.69,-553.63C709.61,-549.31 700.54,-544.73 692,-541 673.16,-532.78 628.66,-517.3 590.06,-504.26"/>
<polygon fill="#112c5f" stroke="#112c5f" stroke-width="2" points="590.98,-500.88 580.39,-501 588.75,-507.51 590.98,-500.88"/>
</g>
<!-- cell_center_2&#45;&gt;NeighborhoodReporter_2_1 -->
<g id="edge46" class="edge">
<title>cell_center_2&#45;&gt;NeighborhoodReporter_2_1</title>
<path fill="none" stroke="#112c5f" stroke-width="2" d="M717.25,-553.87C709.23,-549.6 700.31,-544.99 692,-541 655.76,-523.58 634.93,-535.73 609,-505 598.22,-492.22 589.71,-450.13 584.76,-419.75"/>
<polygon fill="#112c5f" stroke="#112c5f" stroke-width="2" points="588.17,-418.89 583.17,-409.55 581.26,-419.97 588.17,-418.89"/>
</g>
<!-- cell_center_2&#45;&gt;NeighborhoodReporter_2_0 -->
<g id="edge45" class="edge">
<title>cell_center_2&#45;&gt;NeighborhoodReporter_2_0</title>
<path fill="none" stroke="#112c5f" stroke-width="2" d="M719.35,-553.36C710.98,-548.76 701.32,-544.08 692,-541 594.72,-508.82 562.46,-525.18 458.4,-505.16"/>
<polygon fill="#112c5f" stroke="#112c5f" stroke-width="2" points="458.94,-501.7 448.45,-503.18 457.57,-508.56 458.94,-501.7"/>
</g>
<!-- cell_center_x_2 -->
<g id="node52" class="node">
<title>cell_center_x_2</title>
<ellipse fill="#d3d247" stroke="black" cx="816" cy="-481" rx="53.89" ry="18"/>
<text text-anchor="middle" x="816" y="-477.3" font-family="Times,serif" font-size="14.00">cell.center.x</text>
</g>
<!-- cell_center_2&#45;&gt;cell_center_x_2 -->
<g id="edge48" class="edge">
<title>cell_center_2&#45;&gt;cell_center_x_2</title>
<path fill="none" stroke="#38568c" stroke-dasharray="5,2" d="M757.08,-551.42C770,-536.19 789.06,-513.74 801.97,-498.53"/>
</g>
<!-- cell_center_x_2&#45;&gt;CellDeath_2_5386813627640286968_1 -->
<g id="edge49" class="edge">
<title>cell_center_x_2&#45;&gt;CellDeath_2_5386813627640286968_1</title>
<path fill="none" stroke="#112c5f" stroke-width="2" d="M837.76,-464.35C851.99,-454.12 871.28,-440.24 889.63,-427.04"/>
<polygon fill="#112c5f" stroke="#112c5f" stroke-width="2" points="891.9,-429.72 897.97,-421.04 887.81,-424.04 891.9,-429.72"/>
</g>
<!-- cell_center_x_2&#45;&gt;CellDivision_2_1 -->
<g id="edge50" class="edge">
<title>cell_center_x_2&#45;&gt;CellDivision_2_1</title>
<path fill="none" stroke="#112c5f" stroke-width="2" d="M802.41,-463.28C792.18,-450.7 777.86,-433.07 765.51,-417.88"/>
<polygon fill="#112c5f" stroke="#112c5f" stroke-width="2" points="767.92,-415.3 758.89,-409.74 762.48,-419.71 767.92,-415.3"/>
</g>
<!-- cell_center_x_2&#45;&gt;System_4_1 -->
<g id="edge51" class="edge">
<title>cell_center_x_2&#45;&gt;System_4_1</title>
<path fill="none" stroke="#112c5f" stroke-width="2" d="M812.14,-462.88C802.69,-418.99 780.96,-304.09 806,-278 821.02,-262.36 982.31,-280.99 1001,-270 1009.65,-264.92 1016.32,-256.59 1021.33,-247.98"/>
<polygon fill="#112c5f" stroke="#112c5f" stroke-width="2" points="1024.48,-249.52 1025.97,-239.03 1018.26,-246.31 1024.48,-249.52"/>
</g>
<!-- cell_surface_2 -->
<g id="node53" class="node">
<title>cell_surface_2</title>
<ellipse fill="#d3d247" stroke="black" cx="516" cy="-296" rx="51.19" ry="18"/>
<text text-anchor="middle" x="516" y="-292.3" font-family="Times,serif" font-size="14.00">cell.surface</text>
</g>
<!-- cell_surface_2&#45;&gt;System_4_1 -->
<g id="edge52" class="edge">
<title>cell_surface_2&#45;&gt;System_4_1</title>
<path fill="none" stroke="#112c5f" stroke-width="2" d="M552.16,-283.14C559.94,-281.04 568.18,-279.16 576,-278 599.36,-274.53 980.51,-281.74 1001,-270 1009.7,-265.01 1016.39,-256.71 1021.4,-248.1"/>
<polygon fill="#112c5f" stroke="#112c5f" stroke-width="2" points="1024.55,-249.63 1026.03,-239.14 1018.33,-246.42 1024.55,-249.63"/>
</g>
<!-- cell_type_2 -->
<g id="node54" class="node">
<title>cell_type_2</title>
<g id="a_node54"><a xlink:href="morph://MorpheusModel/CellTypes/CellType[1]" xlink:title="cell.type">
<ellipse fill="#d3d247" stroke="black" cx="1031" cy="-569" rx="40.89" ry="18"/>
<text text-anchor="middle" x="1031" y="-565.3" font-family="Times,serif" font-size="14.00">cell.type</text>
</a>
</g>
</g>
<!-- cell_type_2&#45;&gt;cell_type_0 -->
<g id="edge55" class="edge">
<title>cell_type_2&#45;&gt;cell_type_0</title>
<path fill="none" stroke="#38568c" stroke-dasharray="5,2" d="M1052.83,-553.37C1060,-548.99 1068.15,-544.43 1076,-541 1128.18,-518.16 1145.37,-524.19 1199,-505 1206.1,-502.46 1213.61,-499.47 1220.69,-496.49"/>
</g>
<!-- cell_volume_2 -->
<g id="node55" class="node">
<title>cell_volume_2</title>
<ellipse fill="#d3d247" stroke="black" cx="671" cy="-481" rx="52.79" ry="18"/>
<text text-anchor="middle" x="671" y="-477.3" font-family="Times,serif" font-size="14.00">cell.volume</text>
</g>
<!-- cell_volume_2&#45;&gt;CellDivision_2_1 -->
<g id="edge56" class="edge">
<title>cell_volume_2&#45;&gt;CellDivision_2_1</title>
<path fill="none" stroke="#112c5f" stroke-width="2" d="M683.34,-463.28C692.62,-450.7 705.63,-433.07 716.84,-417.88"/>
<polygon fill="#112c5f" stroke="#112c5f" stroke-width="2" points="719.73,-419.87 722.85,-409.74 714.09,-415.71 719.73,-419.87"/>
</g>
<!-- cell_volume_2&#45;&gt;System_4_1 -->
<g id="edge57" class="edge">
<title>cell_volume_2&#45;&gt;System_4_1</title>
<path fill="none" stroke="#112c5f" stroke-width="2" d="M669.27,-463C667.44,-436.74 667.32,-385.62 689,-350 703.43,-326.3 764.72,-286.9 791,-278 813.12,-270.51 980.86,-281.81 1001,-270 1009.65,-264.93 1016.33,-256.61 1021.34,-248"/>
<polygon fill="#112c5f" stroke="#112c5f" stroke-width="2" points="1024.49,-249.54 1025.97,-239.05 1018.27,-246.32 1024.49,-249.54"/>
</g>
<!-- d_abs_2 -->
<g id="node57" class="node">
<title>d_abs_2</title>
<ellipse fill="#d3d247" stroke="black" cx="417" cy="-296" rx="29.5" ry="18"/>
<text text-anchor="middle" x="417" y="-292.3" font-family="Times,serif" font-size="14.00">d.abs</text>
</g>
<!-- d_2&#45;&gt;d_abs_2 -->
<g id="edge60" class="edge">
<title>d_2&#45;&gt;d_abs_2</title>
<path fill="none" stroke="#38568c" stroke-dasharray="5,2" d="M442.02,-367.63C436.53,-352.13 428.44,-329.3 422.96,-313.82"/>
</g>
<!-- d_abs_2&#45;&gt;System_4_1 -->
<g id="edge61" class="edge">
<title>d_abs_2&#45;&gt;System_4_1</title>
<path fill="none" stroke="#112c5f" stroke-width="2" d="M438.77,-283.71C444.25,-281.38 450.22,-279.25 456,-278 485.6,-271.6 974.7,-285.01 1001,-270 1009.71,-265.03 1016.41,-256.74 1021.42,-248.12"/>
<polygon fill="#112c5f" stroke="#112c5f" stroke-width="2" points="1024.57,-249.65 1026.04,-239.16 1018.34,-246.44 1024.57,-249.65"/>
</g>
<!-- dist_2 -->
<g id="node58" class="node">
<title>dist_2</title>
<g id="a_node58"><a xlink:href="morph://MorpheusModel/CellTypes/CellType[1]/Property[4]" xlink:title="dist">
<ellipse fill="#d3d247" stroke="black" cx="517" cy="-137" rx="27" ry="18"/>
<text text-anchor="middle" x="517" y="-133.3" font-family="Times,serif" font-size="14.00">dist</text>
</a>
</g>
</g>
<!-- q_2 -->
<g id="node60" class="node">
<title>q_2</title>
<g id="a_node60"><a xlink:href="morph://MorpheusModel/CellTypes/CellType[1]/Property[12]" xlink:title="q">
<ellipse fill="#d3d247" stroke="black" cx="589" cy="-137" rx="27" ry="18"/>
<text text-anchor="middle" x="589" y="-133.3" font-family="Times,serif" font-size="14.00">q</text>
</a>
</g>
</g>
<!-- truavspeed_2 -->
<g id="node61" class="node">
<title>truavspeed_2</title>
<g id="a_node61"><a xlink:href="morph://MorpheusModel/CellTypes/CellType[1]/Property[6]" xlink:title="truavspeed">
<ellipse fill="#d3d247" stroke="black" cx="683" cy="-137" rx="48.99" ry="18"/>
<text text-anchor="middle" x="683" y="-133.3" font-family="Times,serif" font-size="14.00">truavspeed</text>
</a>
</g>
</g>
<!-- truavspeed2_2 -->
<g id="node62" class="node">
<title>truavspeed2_2</title>
<g id="a_node62"><a xlink:href="morph://MorpheusModel/CellTypes/CellType[1]/Property[8]" xlink:title="truavspeed2">
<ellipse fill="#d3d247" stroke="black" cx="803" cy="-137" rx="53.09" ry="18"/>
<text text-anchor="middle" x="803" y="-133.3" font-family="Times,serif" font-size="14.00">truavspeed2</text>
</a>
</g>
</g>
<!-- System_4_1&#45;&gt;Cr_2 -->
<g id="edge31" class="edge">
<title>System_4_1&#45;&gt;Cr_2</title>
<path fill="none" stroke="#8f100d" stroke-width="3" d="M1011.4,-190.92C1008.06,-188.07 1004.54,-185.34 1001,-183 975.09,-165.9 965.26,-167.85 937,-155 935.21,-154.18 933.37,-153.34 931.51,-152.48"/>
<polygon fill="#8f100d" stroke="#8f100d" stroke-width="3" points="932.82,-149.23 922.27,-148.17 929.85,-155.57 932.82,-149.23"/>
</g>
<!-- System_4_1&#45;&gt;E_2 -->
<g id="edge32" class="edge">
<title>System_4_1&#45;&gt;E_2</title>
<path fill="none" stroke="#8f100d" stroke-width="3" d="M1037.36,-190.78C1038.53,-182.68 1039.86,-173.52 1041.07,-165.12"/>
<polygon fill="#8f100d" stroke="#8f100d" stroke-width="3" points="1044.56,-165.44 1042.53,-155.04 1037.64,-164.44 1044.56,-165.44"/>
</g>
<!-- System_4_1&#45;&gt;R_2 -->
<g id="edge33" class="edge">
<title>System_4_1&#45;&gt;R_2</title>
<path fill="none" stroke="#8f100d" stroke-width="3" d="M1015.37,-190.78C1007.78,-181.33 999.03,-170.43 991.46,-161"/>
<polygon fill="#8f100d" stroke="#8f100d" stroke-width="3" points="994.16,-158.77 985.17,-153.16 988.7,-163.15 994.16,-158.77"/>
</g>
<!-- System_4_1&#45;&gt;Y_2 -->
<g id="edge34" class="edge">
<title>System_4_1&#45;&gt;Y_2</title>
<path fill="none" stroke="#8f100d" stroke-width="3" d="M1013.61,-190.82C1009.75,-187.67 1005.5,-184.88 1001,-183 852.89,-121 434.96,-193.16 279,-155 276.82,-154.47 274.61,-153.79 272.42,-153.03"/>
<polygon fill="#8f100d" stroke="#8f100d" stroke-width="3" points="273.62,-149.74 263.03,-149.19 270.97,-156.22 273.62,-149.74"/>
</g>
<!-- System_4_1&#45;&gt;avspeed_2 -->
<g id="edge36" class="edge">
<title>System_4_1&#45;&gt;avspeed_2</title>
<path fill="none" stroke="#8f100d" stroke-width="3" d="M1013.6,-190.84C1009.74,-187.69 1005.49,-184.9 1001,-183 872.71,-128.85 511.68,-181.65 375,-155 371.75,-154.37 368.42,-153.55 365.1,-152.63"/>
<polygon fill="#8f100d" stroke="#8f100d" stroke-width="3" points="365.88,-149.2 355.29,-149.57 363.8,-155.89 365.88,-149.2"/>
</g>
<!-- System_4_1&#45;&gt;avspeed2_2 -->
<g id="edge35" class="edge">
<title>System_4_1&#45;&gt;avspeed2_2</title>
<path fill="none" stroke="#8f100d" stroke-width="3" d="M1013.59,-190.87C1009.73,-187.72 1005.48,-184.92 1001,-183 894.59,-137.51 594.81,-175.96 481,-155 477.1,-154.28 473.09,-153.36 469.11,-152.31"/>
<polygon fill="#8f100d" stroke="#8f100d" stroke-width="3" points="469.91,-148.9 459.33,-149.51 467.98,-155.63 469.91,-148.9"/>
</g>
<!-- System_4_1&#45;&gt;dist_2 -->
<g id="edge37" class="edge">
<title>System_4_1&#45;&gt;dist_2</title>
<path fill="none" stroke="#8f100d" stroke-width="3" d="M1013.58,-190.91C1009.71,-187.75 1005.47,-184.93 1001,-183 909.45,-143.4 649.6,-179.85 553,-155 550.82,-154.44 548.62,-153.75 546.43,-152.97"/>
<polygon fill="#8f100d" stroke="#8f100d" stroke-width="3" points="547.64,-149.68 537.06,-149.1 544.97,-156.15 547.64,-149.68"/>
</g>
<!-- System_4_1&#45;&gt;q_2 -->
<g id="edge38" class="edge">
<title>System_4_1&#45;&gt;q_2</title>
<path fill="none" stroke="#8f100d" stroke-width="3" d="M1013.56,-190.95C1009.7,-187.79 1005.46,-184.96 1001,-183 847.6,-115.55 787.04,-197.72 625,-155 622.83,-154.43 620.63,-153.73 618.44,-152.94"/>
<polygon fill="#8f100d" stroke="#8f100d" stroke-width="3" points="619.65,-149.65 609.07,-149.06 616.97,-156.12 619.65,-149.65"/>
</g>
<!-- System_4_1&#45;&gt;truavspeed_2 -->
<g id="edge40" class="edge">
<title>System_4_1&#45;&gt;truavspeed_2</title>
<path fill="none" stroke="#8f100d" stroke-width="3" d="M1013.12,-190.77C1009.38,-187.72 1005.29,-184.97 1001,-183 895.39,-134.47 854.99,-177.66 741,-155 736.83,-154.17 732.53,-153.18 728.24,-152.1"/>
<polygon fill="#8f100d" stroke="#8f100d" stroke-width="3" points="728.9,-148.65 718.33,-149.44 727.09,-155.41 728.9,-148.65"/>
</g>
<!-- System_4_1&#45;&gt;truavspeed2_2 -->
<g id="edge39" class="edge">
<title>System_4_1&#45;&gt;truavspeed2_2</title>
<path fill="none" stroke="#8f100d" stroke-width="3" d="M1012.58,-190.82C1008.95,-187.84 1005.05,-185.1 1001,-183 946.22,-154.58 925.01,-169.39 865,-155 860.85,-154 856.55,-152.93 852.25,-151.81"/>
<polygon fill="#8f100d" stroke="#8f100d" stroke-width="3" points="852.82,-148.35 842.26,-149.18 851.03,-155.11 852.82,-148.35"/>
</g>
</g>
</svg>
