<?xml version="1.0" encoding="UTF-8" standalone="no"?> <svg xmlns="http://www.w3.org/2000/svg" xmlns:xlink="http://www.w3.org/1999/xlink" width="1014pt" height="465pt" viewBox="0.00 0.00 1014.00 464.90">
<g id="graph0" class="graph" transform="scale(1 1) rotate(0) translate(4 460.9)">
<title style="">%0</title>
<polygon fill="#ffffff" stroke="transparent" points="-4,4 -4,-460.9 1010,-460.9 1010,4 -4,4" style=""></polygon>
<g id="clust1" class="cluster">
<title style="">cluster</title>
<polygon fill="#234178" fill-opacity="0.184314" stroke="#000000" points="8,-8 8,-448.9 998,-448.9 998,-8 8,-8" style=""></polygon>
<text text-anchor="middle" x="503" y="-432.3" font-family="Times,serif" font-size="14.00" fill="#000000">Global</text>
</g>
<g id="clust2" class="cluster">
<title style="">cluster_1</title>
<polygon fill="#234178" fill-opacity="0.184314" stroke="#000000" points="158,-174 158,-416.1 382,-416.1 382,-174 158,-174" style=""></polygon>
<text text-anchor="middle" x="270" y="-399.5" font-family="Times,serif" font-size="14.00" fill="#000000">CellType[ct1]</text>
</g>
<g id="clust3" class="cluster">
<title style="">cluster_2</title>
<polygon fill="#234178" fill-opacity="0.184314" stroke="#000000" points="534,-174 534,-416.1 758,-416.1 758,-174 534,-174" style=""></polygon>
<text text-anchor="middle" x="646" y="-399.5" font-family="Times,serif" font-size="14.00" fill="#000000">CellType[ct2]</text>
</g>
<!-- Logger_0_10 -->
<g id="node1" class="node">
<title style="">Logger_0_10</title>
<g id="a_node1">">
<polygon fill="#fffea3" stroke="transparent" points="279.5,-66 228.5,-66 228.5,-16 279.5,-16 279.5,-66" style=""></polygon>
<text text-anchor="start" x="232.8423" y="-48.5" font-family="times" font-size="15.00" fill="#000000">Logger</text>
<text text-anchor="start" x="247" y="-24.5" font-family="times" font-size="15.00" fill="#000000">10</text>
<polygon fill="#000000" stroke="#000000" points="229,-41 229,-41 280,-41 280,-41 229,-41" style=""></polygon>
<polygon fill="none" stroke="#000000" points="228.5,-16 228.5,-66 279.5,-66 279.5,-16 228.5,-16" style=""></polygon>
</g>
</g>
<!-- CPM_0_1 -->
<g id="node2" class="node">
<title style="">CPM_0_1</title>
<g id="a_node2">
<polygon fill="#fffea3" stroke="#000000" points="854,-340.5 854,-390.1 908,-390.1 908,-340.5 854,-340.5" style=""></polygon>
<text text-anchor="middle" x="880.7819" y="-373.5" font-family="Times,serif" font-size="14.00" fill="#000000">CPM</text>
<polyline fill="none" stroke="#000000" points="854,-365.3 907.5638,-365.3 " style=""></polyline>
<text text-anchor="middle" x="880.7819" y="-348.7" font-family="Times,serif" font-size="14.00" fill="#000000">1</text>
</g>
</g>
<!-- cell_center_0 -->
<g id="node7" class="node">
<title style="">cell_center_0</title>
<ellipse fill="#b5b426" stroke="#000000" cx="821" cy="-279" rx="50.9588" ry="18" style=""></ellipse>
<ellipse fill="none" stroke="#000000" cx="821" cy="-279" rx="54.9572" ry="22" style=""></ellipse>
<text text-anchor="middle" x="821" y="-274.8" font-family="Times,serif" font-size="14.00" fill="#000000">cell.center</text>
</g>
<!-- CPM_0_1&#45;&gt;cell_center_0 -->
<g id="edge1" class="edge">
<title style="">CPM_0_1-&gt;cell_center_0</title>
<path fill="none" stroke="#8f100d" stroke-width="3" d="M863.6455,-340.3385C856.7776,-330.4601 848.8274,-319.0251 841.6655,-308.7239" style=""></path>
<polygon fill="#8f100d" stroke="#8f100d" stroke-width="3" points="844.4582,-306.6093 835.876,-300.3967 838.7108,-310.6053 844.4582,-306.6093" style=""></polygon>
</g>
<!-- cell_type_0 -->
<g id="node8" class="node">
<title style="">cell_type_0</title>
<ellipse fill="#d3d247" stroke="#000000" cx="942" cy="-279" rx="44.0361" ry="18" style=""></ellipse>
<ellipse fill="none" stroke="#000000" cx="942" cy="-279" rx="48.0377" ry="22" style=""></ellipse>
<text text-anchor="middle" x="942" y="-274.8" font-family="Times,serif" font-size="14.00" fill="#000000">cell.type</text>
</g>
<!-- CPM_0_1&#45;&gt;cell_type_0 -->
<g id="edge2" class="edge">
<title style="">CPM_0_1-&gt;cell_type_0</title>
<path fill="none" stroke="#8f100d" stroke-width="3" d="M898.6437,-340.3385C905.6811,-330.3823 913.8361,-318.8449 921.1619,-308.4808" style=""></path>
<polygon fill="#8f100d" stroke="#8f100d" stroke-width="3" points="924.1638,-310.2976 927.0777,-300.1114 918.4475,-306.2572 924.1638,-310.2976" style=""></polygon>
</g>
<!-- Gnuplotter_0_100 -->
<g id="node3" class="node">
<title style="">Gnuplotter_0_100</title>
<g id="a_node3">">
<polygon fill="#fffea3" stroke="transparent" points="388,-66 316,-66 316,-16 388,-16 388,-66" style=""></polygon>
<text text-anchor="start" x="319.507" y="-48.5" font-family="times" font-size="15.00" fill="#000000">Gnuplotter</text>
<text text-anchor="start" x="340.75" y="-24.5" font-family="times" font-size="15.00" fill="#000000">100</text>
<polygon fill="#000000" stroke="#000000" points="316,-41 316,-41 388,-41 388,-41 316,-41" style=""></polygon>
<polygon fill="none" stroke="#000000" points="316,-16 316,-66 388,-66 388,-16 316,-16" style=""></polygon>
</g>
</g>
<!-- b_0 -->
<g id="node4" class="node">
<title style="">b_0</title>
<ellipse fill="#d3d247" stroke="#000000" cx="352" cy="-124" rx="27" ry="18" style=""></ellipse>
<ellipse fill="none" stroke="#000000" cx="352" cy="-124" rx="31" ry="22" style=""></ellipse>
<text text-anchor="middle" x="352" y="-119.8" font-family="Times,serif" font-size="14.00" fill="#000000">b</text>
</g>
<!-- b_0&#45;&gt;Logger_0_10 -->
<g id="edge14" class="edge">
<title style="">b_0-&gt;Logger_0_10</title>
<path fill="none" stroke="#112c5f" stroke-width="2" d="M331.6943,-106.8023C318.9222,-95.9852 302.1342,-81.7667 287.4326,-69.3154" style=""></path>
<polygon fill="#112c5f" stroke="#112c5f" stroke-width="2" points="289.4114,-66.4047 279.5185,-62.6126 284.8874,-71.7464 289.4114,-66.4047" style=""></polygon>
</g>
<!-- b_0&#45;&gt;Gnuplotter_0_100 -->
<g id="edge13" class="edge">
<title style="">b_0-&gt;Gnuplotter_0_100</title>
<path fill="none" stroke="#112c5f" stroke-width="2" d="M352,-101.7575C352,-93.974 352,-85.0292 352,-76.4385" style=""></path>
<polygon fill="#112c5f" stroke="#112c5f" stroke-width="2" points="355.5001,-76.2372 352,-66.2373 348.5001,-76.2373 355.5001,-76.2372" style=""></polygon>
</g>
<!-- b_0&#45;&gt;b_0 -->
<g id="edge15" class="edge">
<title style="">b_0-&gt;b_0</title>
<path fill="none" stroke="#38568c" stroke-dasharray="5,2" d="M376.4555,-137.7064C389.3317,-139.9243 401,-135.3555 401,-124 401,-112.6445 389.3317,-108.0757 376.4555,-110.2936" style=""></path>
</g>
<!-- b2_0 -->
<g id="node5" class="node">
<title style="">b2_0</title>
<ellipse fill="#d3d247" stroke="#000000" cx="254" cy="-124" rx="27" ry="18" style=""></ellipse>
<ellipse fill="none" stroke="#000000" cx="254" cy="-124" rx="31" ry="22" style=""></ellipse>
<text text-anchor="middle" x="254" y="-119.8" font-family="Times,serif" font-size="14.00" fill="#000000">b2</text>
</g>
<!-- b2_0&#45;&gt;Logger_0_10 -->
<g id="edge9" class="edge">
<title style="">b2_0-&gt;Logger_0_10</title>
<path fill="none" stroke="#112c5f" stroke-width="2" d="M254,-101.7575C254,-93.974 254,-85.0292 254,-76.4385" style=""></path>
<polygon fill="#112c5f" stroke="#112c5f" stroke-width="2" points="257.5001,-76.2372 254,-66.2373 250.5001,-76.2373 257.5001,-76.2372" style=""></polygon>
</g>
<!-- b2_0&#45;&gt;Gnuplotter_0_100 -->
<g id="edge8" class="edge">
<title style="">b2_0-&gt;Gnuplotter_0_100</title>
<path fill="none" stroke="#112c5f" stroke-width="2" d="M274.3057,-106.8023C285.9284,-96.9586 300.8769,-84.2981 314.5523,-72.7159" style=""></path>
<polygon fill="#112c5f" stroke="#112c5f" stroke-width="2" points="317.0534,-75.1843 322.4223,-66.0505 312.5293,-69.8426 317.0534,-75.1843" style=""></polygon>
</g>
<!-- b2_0&#45;&gt;b2_0 -->
<g id="edge10" class="edge">
<title style="">b2_0-&gt;b2_0</title>
<path fill="none" stroke="#38568c" stroke-dasharray="5,2" d="M278.4555,-137.7064C291.3317,-139.9243 303,-135.3555 303,-124 303,-112.6445 291.3317,-108.0757 278.4555,-110.2936" style=""></path>
</g>
<!-- boundary_0 -->
<g id="node6" class="node">
<title style="">boundary_0</title>
<g id="a_node6">
<ellipse fill="#d3d247" stroke="#000000" cx="102" cy="-200" rx="47.5177" ry="18" style=""></ellipse>
<text text-anchor="middle" x="102" y="-195.8" font-family="Times,serif" font-size="14.00" fill="#000000">boundary</text>
</g>
</g>
<!-- boundary_0&#45;&gt;Logger_0_10 -->
<g id="edge18" class="edge">
<title style="">boundary_0-&gt;Logger_0_10</title>
<path fill="none" stroke="#112c5f" stroke-width="2" d="M118.2667,-182.9842C143.0822,-157.0258 190.8508,-107.0574 222.5815,-73.8654" style=""></path>
<polygon fill="#112c5f" stroke="#112c5f" stroke-width="2" points="225.5034,-75.8739 229.8837,-66.227 220.4435,-71.0368 225.5034,-75.8739" style=""></polygon>
</g>
<!-- cell_type_0&#45;&gt;Gnuplotter_0_100 -->
<g id="edge23" class="edge">
<title style="">cell_type_0-&gt;Gnuplotter_0_100</title>
<path fill="none" stroke="#112c5f" stroke-width="2" d="M914.9234,-260.7158C880.5273,-238.0828 818.7961,-199.4234 762,-174 634.535,-116.9434 475.027,-72.3946 397.9321,-52.4388" style=""></path>
<polygon fill="#112c5f" stroke="#112c5f" stroke-width="2" points="398.6131,-49.0001 388.0566,-49.9006 396.8706,-55.7798 398.6131,-49.0001" style=""></polygon>
</g>
<!-- NeighborhoodReporter_1_10 -->
<g id="node11" class="node">
<title style="">NeighborhoodReporter_1_10</title>
<g id="a_node11">">
<polygon fill="#fffea3" stroke="transparent" points="317.5,-304 170.5,-304 170.5,-254 317.5,-254 317.5,-304" style=""></polygon>
<text text-anchor="start" x="174.9375" y="-286.5" font-family="times" font-size="15.00" fill="#000000">NeighborhoodReporter</text>
<text text-anchor="start" x="237" y="-262.5" font-family="times" font-size="15.00" fill="#000000">10</text>
<polygon fill="#000000" stroke="#000000" points="171,-279 171,-279 318,-279 318,-279 171,-279" style=""></polygon>
<polygon fill="none" stroke="#000000" points="170.5,-254 170.5,-304 317.5,-304 317.5,-254 170.5,-254" style=""></polygon>
</g>
</g>
<!-- cell_type_0&#45;&gt;NeighborhoodReporter_1_10 -->
<g id="edge24" class="edge">
<title style="">cell_type_0-&gt;NeighborhoodReporter_1_10</title>
<path fill="none" stroke="#112c5f" stroke-width="2" d="M919.2299,-298.5568C907.2167,-307.5872 891.7315,-317.3274 876,-322 804.2108,-343.3228 613.6929,-327.4151 539,-322 467.267,-316.7995 386.4881,-304.5749 327.6199,-294.4841" style=""></path>
<polygon fill="#112c5f" stroke="#112c5f" stroke-width="2" points="328.0793,-291.0117 317.6291,-292.756 326.8862,-297.9093 328.0793,-291.0117" style=""></polygon>
</g>
<!-- NeighborhoodReporter_2_10 -->
<g id="node16" class="node">
<title style="">NeighborhoodReporter_2_10</title>
<g id="a_node16">">
<polygon fill="#fffea3" stroke="transparent" points="689.5,-304 542.5,-304 542.5,-254 689.5,-254 689.5,-304" style=""></polygon>
<text text-anchor="start" x="546.9375" y="-286.5" font-family="times" font-size="15.00" fill="#000000">NeighborhoodReporter</text>
<text text-anchor="start" x="609" y="-262.5" font-family="times" font-size="15.00" fill="#000000">10</text>
<polygon fill="#000000" stroke="#000000" points="543,-279 543,-279 690,-279 690,-279 543,-279" style=""></polygon>
<polygon fill="none" stroke="#000000" points="542.5,-254 542.5,-304 689.5,-304 689.5,-254 542.5,-254" style=""></polygon>
</g>
</g>
<!-- cell_type_0&#45;&gt;NeighborhoodReporter_2_10 -->
<g id="edge25" class="edge">
<title style="">cell_type_0-&gt;NeighborhoodReporter_2_10</title>
<path fill="none" stroke="#112c5f" stroke-width="2" d="M919.2299,-298.5568C907.2167,-307.5872 891.7315,-317.3274 876,-322 802.2936,-343.8922 777.8725,-339.493 703,-322 690.5721,-319.0964 677.8816,-314.1462 666.1721,-308.6149" style=""></path>
<polygon fill="#112c5f" stroke="#112c5f" stroke-width="2" points="667.5302,-305.3818 657.0153,-304.0822 664.4247,-311.6553 667.5302,-305.3818" style=""></polygon>
</g>
<!-- celltype_ct1_id_0 -->
<g id="node9" class="node">
<title style="">celltype_ct1_id_0</title>
<ellipse fill="#d3d247" stroke="#000000" cx="458" cy="-365.3" rx="65.989" ry="18" style=""></ellipse>
<text text-anchor="middle" x="458" y="-361.1" font-family="Times,serif" font-size="14.00" fill="#000000">celltype.ct1.id</text>
</g>
<!-- celltype_ct1_id_0&#45;&gt;NeighborhoodReporter_2_10 -->
<g id="edge28" class="edge">
<title style="">celltype_ct1_id_0-&gt;NeighborhoodReporter_2_10</title>
<path fill="none" stroke="#112c5f" stroke-width="2" d="M487.7186,-349.0676C508.3388,-337.8048 536.4173,-322.4683 561.0482,-309.0148" style=""></path>
<polygon fill="#112c5f" stroke="#112c5f" stroke-width="2" points="562.8481,-312.0198 569.9465,-304.1545 559.4926,-305.8765 562.8481,-312.0198" style=""></polygon>
</g>
<!-- celltype_ct2_id_0 -->
<g id="node10" class="node">
<title style="">celltype_ct2_id_0</title>
<ellipse fill="#d3d247" stroke="#000000" cx="82" cy="-365.3" rx="65.989" ry="18" style=""></ellipse>
<text text-anchor="middle" x="82" y="-361.1" font-family="Times,serif" font-size="14.00" fill="#000000">celltype.ct2.id</text>
</g>
<!-- celltype_ct2_id_0&#45;&gt;NeighborhoodReporter_1_10 -->
<g id="edge29" class="edge">
<title style="">celltype_ct2_id_0-&gt;NeighborhoodReporter_1_10</title>
<path fill="none" stroke="#112c5f" stroke-width="2" d="M112.0913,-349.2699C133.3727,-337.9329 162.5388,-322.3957 188.0348,-308.8136" style=""></path>
<polygon fill="#112c5f" stroke="#112c5f" stroke-width="2" points="189.7008,-311.8917 196.881,-304.101 186.4096,-305.7137 189.7008,-311.8917" style=""></polygon>
</g>
<!-- NeighborhoodReporter_1_10&#45;&gt;boundary_0 -->
<g id="edge5" class="edge">
<title style="">NeighborhoodReporter_1_10-&gt;boundary_0</title>
<path fill="none" stroke="#8f100d" stroke-width="3" d="M198.6799,-253.7867C179.0991,-242.8932 156.5067,-230.3241 138.0878,-220.077" style=""></path>
<polygon fill="#8f100d" stroke="#8f100d" stroke-width="3" points="139.5844,-216.9045 129.1442,-215.1013 136.1813,-223.0216 139.5844,-216.9045" style=""></polygon>
</g>
<!-- b_1 -->
<g id="node12" class="node">
<title style="">b_1</title>
<g id="a_node12">
<ellipse fill="#d3d247" stroke="#000000" cx="338" cy="-200" rx="27" ry="18" style=""></ellipse>
<text text-anchor="middle" x="338" y="-195.8" font-family="Times,serif" font-size="14.00" fill="#000000">b</text>
</g>
</g>
<!-- NeighborhoodReporter_1_10&#45;&gt;b_1 -->
<g id="edge4" class="edge">
<title style="">NeighborhoodReporter_1_10-&gt;b_1</title>
<path fill="none" stroke="#8f100d" stroke-width="3" d="M274.0006,-253.7867C286.6608,-243.1468 301.2227,-230.9086 313.2548,-220.7965" style=""></path>
<polygon fill="#8f100d" stroke="#8f100d" stroke-width="3" points="315.7224,-223.2946 321.126,-214.1813 311.2187,-217.9358 315.7224,-223.2946" style=""></polygon>
</g>
<!-- b2_1 -->
<g id="node13" class="node">
<title style="">b2_1</title>
<g id="a_node13">
<ellipse fill="#d3d247" stroke="#000000" cx="252" cy="-200" rx="27" ry="18" style=""></ellipse>
<text text-anchor="middle" x="252" y="-195.8" font-family="Times,serif" font-size="14.00" fill="#000000">b2</text>
</g>
</g>
<!-- NeighborhoodReporter_1_10&#45;&gt;b2_1 -->
<g id="edge3" class="edge">
<title style="">NeighborhoodReporter_1_10-&gt;b2_1</title>
<path fill="none" stroke="#8f100d" stroke-width="3" d="M246.5753,-253.5691C247.3975,-245.45 248.312,-236.4187 249.1524,-228.1201" style=""></path>
<polygon fill="#8f100d" stroke="#8f100d" stroke-width="3" points="252.6392,-228.426 250.1646,-218.1242 245.6749,-227.7207 252.6392,-228.426" style=""></polygon>
</g>
<!-- b_1&#45;&gt;b_0 -->
<g id="edge16" class="edge">
<title style="">b_1-&gt;b_0</title>
<path fill="none" stroke="#38568c" stroke-dasharray="5,2" d="M341.3178,-181.9891C343.3069,-171.1909 345.8506,-157.3823 347.9568,-145.9489" style=""></path>
</g>
<!-- b2_1&#45;&gt;b2_0 -->
<g id="edge11" class="edge">
<title style="">b2_1-&gt;b2_0</title>
<path fill="none" stroke="#38568c" stroke-dasharray="5,2" d="M252.474,-181.9891C252.7558,-171.2787 253.1156,-157.6066 253.415,-146.2282" style=""></path>
</g>
<!-- cell_center_1 -->
<g id="node14" class="node">
<title style="">cell_center_1</title>
<ellipse fill="#b5b426" stroke="#000000" cx="217" cy="-365.3" rx="50.9572" ry="18" style=""></ellipse>
<text text-anchor="middle" x="217" y="-361.1" font-family="Times,serif" font-size="14.00" fill="#000000">cell.center</text>
</g>
<!-- cell_center_1&#45;&gt;cell_center_0 -->
<g id="edge20" class="edge">
<title style="">cell_center_1-&gt;cell_center_0</title>
<path fill="none" stroke="#38568c" stroke-dasharray="5,2" d="M246.5673,-350.5877C256.0662,-346.4767 266.7793,-342.464 277,-340 487.1284,-289.3419 551.916,-354.8419 762,-304 770.0013,-302.0636 778.3067,-299.1578 786.0718,-296.0048" style=""></path>
</g>
<!-- cell_center_1&#45;&gt;NeighborhoodReporter_1_10 -->
<g id="edge19" class="edge">
<title style="">cell_center_1-&gt;NeighborhoodReporter_1_10</title>
<path fill="none" stroke="#112c5f" stroke-width="2" d="M222.726,-346.998C225.7431,-337.3545 229.546,-325.1992 233.0993,-313.842" style=""></path>
<polygon fill="#112c5f" stroke="#112c5f" stroke-width="2" points="236.4859,-314.7389 236.1315,-304.15 229.8052,-312.6487 236.4859,-314.7389" style=""></polygon>
</g>
<!-- cell_type_1 -->
<g id="node15" class="node">
<title style="">cell_type_1</title>
<g id="a_node15">
<ellipse fill="#d3d247" stroke="#000000" cx="330" cy="-365.3" rx="44.0377" ry="18" style=""></ellipse>
<text text-anchor="middle" x="330" y="-361.1" font-family="Times,serif" font-size="14.00" fill="#000000">cell.type</text>
</g>
</g>
<!-- cell_type_1&#45;&gt;cell_type_0 -->
<g id="edge26" class="edge">
<title style="">cell_type_1-&gt;cell_type_0</title>
<path fill="none" stroke="#38568c" stroke-dasharray="5,2" d="M354.0897,-350.117C361.4945,-346.1442 369.8474,-342.3265 378,-340 595.2285,-278.0091 665.6878,-358.1598 885,-304 893.2876,-301.9533 901.8883,-298.7891 909.8197,-295.392" style=""></path>
</g>
<!-- b_2 -->
<g id="node17" class="node">
<title style="">b_2</title>
<g id="a_node17">
<ellipse fill="#d3d247" stroke="#000000" cx="641" cy="-200" rx="27" ry="18" style=""></ellipse>
<text text-anchor="middle" x="641" y="-195.8" font-family="Times,serif" font-size="14.00" fill="#000000">b</text>
</g>
</g>
<!-- NeighborhoodReporter_2_10&#45;&gt;b_2 -->
<g id="edge7" class="edge">
<title style="">NeighborhoodReporter_2_10-&gt;b_2</title>
<path fill="none" stroke="#8f100d" stroke-width="3" d="M624.0478,-253.5691C626.7152,-245.1399 629.6938,-235.7275 632.4011,-227.1725" style=""></path>
<polygon fill="#8f100d" stroke="#8f100d" stroke-width="3" points="635.7394,-228.2239 635.4197,-217.6339 629.0656,-226.1119 635.7394,-228.2239" style=""></polygon>
</g>
<!-- b2_2 -->
<g id="node18" class="node">
<title style="">b2_2</title>
<g id="a_node18">
<ellipse fill="#d3d247" stroke="#000000" cx="569" cy="-200" rx="27" ry="18" style=""></ellipse>
<text text-anchor="middle" x="569" y="-195.8" font-family="Times,serif" font-size="14.00" fill="#000000">b2</text>
</g>
</g>
<!-- NeighborhoodReporter_2_10&#45;&gt;b2_2 -->
<g id="edge6" class="edge">
<title style="">NeighborhoodReporter_2_10-&gt;b2_2</title>
<path fill="none" stroke="#8f100d" stroke-width="3" d="M600.8702,-253.5691C595.6122,-244.7311 589.7111,-234.8123 584.4292,-225.9342" style=""></path>
<polygon fill="#8f100d" stroke="#8f100d" stroke-width="3" points="587.3228,-223.9524 579.2019,-217.1479 581.307,-227.5315 587.3228,-223.9524" style=""></polygon>
</g>
<!-- b_2&#45;&gt;b_0 -->
<g id="edge17" class="edge">
<title style="">b_2-&gt;b_0</title>
<path fill="none" stroke="#38568c" stroke-dasharray="5,2" d="M624.344,-185.6862C618.5461,-181.3465 611.7869,-176.9522 605,-174 529.6603,-141.2282 432.3363,-129.748 383.2539,-125.8739" style=""></path>
</g>
<!-- b2_2&#45;&gt;b2_0 -->
<g id="edge12" class="edge">
<title style="">b2_2-&gt;b2_0</title>
<path fill="none" stroke="#38568c" stroke-dasharray="5,2" d="M542.397,-195.8151C495.3674,-188.107 394.6978,-170.2127 312,-146 301.6644,-142.9739 290.5534,-138.955 280.8498,-135.1807" style=""></path>
</g>
<!-- cell_center_2 -->
<g id="node19" class="node">
<title style="">cell_center_2</title>
<ellipse fill="#b5b426" stroke="#000000" cx="593" cy="-365.3" rx="50.9572" ry="18" style=""></ellipse>
<text text-anchor="middle" x="593" y="-361.1" font-family="Times,serif" font-size="14.00" fill="#000000">cell.center</text>
</g>
<!-- cell_center_2&#45;&gt;cell_center_0 -->
<g id="edge22" class="edge">
<title style="">cell_center_2-&gt;cell_center_0</title>
<path fill="none" stroke="#38568c" stroke-dasharray="5,2" d="M625.1939,-351.1664C634.1398,-347.392 643.8977,-343.416 653,-340 700.7654,-322.0744 714.2503,-321.9674 762,-304 769.0801,-301.3359 776.5618,-298.3231 783.7321,-295.335" style=""></path>
</g>
<!-- cell_center_2&#45;&gt;NeighborhoodReporter_2_10 -->
<g id="edge21" class="edge">
<title style="">cell_center_2-&gt;NeighborhoodReporter_2_10</title>
<path fill="none" stroke="#112c5f" stroke-width="2" d="M597.8777,-346.998C600.4478,-337.3545 603.6874,-325.1992 606.7142,-313.842" style=""></path>
<polygon fill="#112c5f" stroke="#112c5f" stroke-width="2" points="610.1039,-314.7141 609.2972,-304.15 603.34,-312.9114 610.1039,-314.7141" style=""></polygon>
</g>
<!-- cell_type_2 -->
<g id="node20" class="node">
<title style="">cell_type_2</title>
<g id="a_node20">
<ellipse fill="#d3d247" stroke="#000000" cx="706" cy="-365.3" rx="44.0377" ry="18" style=""></ellipse>
<text text-anchor="middle" x="706" y="-361.1" font-family="Times,serif" font-size="14.00" fill="#000000">cell.type</text>
</g>
</g>
<!-- cell_type_2&#45;&gt;cell_type_0 -->
<g id="edge27" class="edge">
<title style="">cell_type_2-&gt;cell_type_0</title>
<path fill="none" stroke="#38568c" stroke-dasharray="5,2" d="M731.4223,-350.5891C738.5777,-346.8125 746.4666,-342.9796 754,-340 810.1485,-317.7924 828.0911,-324.1794 885,-304 892.6384,-301.2915 900.6935,-298.0242 908.2655,-294.7581" style=""></path>
</g>
</g>
</svg>