<?xml version="1.0" encoding="UTF-8" standalone="no"?> <svg xmlns="http://www.w3.org/2000/svg" xmlns:xlink="http://www.w3.org/1999/xlink" width="1916pt" height="554pt" viewBox="0.00 0.00 1916 553.90">
<g id="graph0" class="graph" transform="scale(1 1) rotate(0) translate(4 549.9)">
<title>%0</title>
<polygon fill="#ffffff" stroke="transparent" points="-4,4 -4,-549.9 1912,-549.9 1912,4 -4,4"></polygon>
<g id="clust1" class="cluster">
<title>cluster</title>
<polygon fill="#234178" fill-opacity="0.184314" stroke="#000000" points="8,-8 8,-537.9 1900,-537.9 1900,-8 8,-8"></polygon>
<text text-anchor="middle" x="954" y="-521.3" font-family="Times,serif" font-size="14.00" fill="#000000">Global</text>
</g>
<g id="clust2" class="cluster">
<title>cluster_1</title>
<polygon fill="#234178" fill-opacity="0.184314" stroke="#000000" points="1592,-192 1592,-461.1 1880,-461.1 1880,-192 1592,-192"></polygon>
<text text-anchor="middle" x="1736" y="-444.5" font-family="Times,serif" font-size="14.00" fill="#000000">CellType[stem_cells]</text>
</g>
<g id="clust4" class="cluster">
<title>cluster_2</title>
<polygon fill="#234178" fill-opacity="0.184314" stroke="#000000" points="491,-94 491,-461.1 1272,-461.1 1272,-94 491,-94"></polygon>
<text text-anchor="middle" x="881.5" y="-444.5" font-family="Times,serif" font-size="14.00" fill="#000000">CellType[TA_cells]</text>
</g>
<!-- Logger_0_100 -->
<g id="node1" class="node">
<title>Logger_0_100</title>
<g id="a_node1">">
<polygon fill="#fffea3" stroke="transparent" points="323.5,-66 272.5,-66 272.5,-16 323.5,-16 323.5,-66"></polygon>
<text text-anchor="start" x="276.8423" y="-48.5" font-family="times" font-size="15.00" fill="#000000">Logger</text>
<text text-anchor="start" x="287.25" y="-24.5" font-family="times" font-size="15.00" fill="#000000">100</text>
<polygon fill="#000000" stroke="#000000" points="273,-41 273,-41 324,-41 324,-41 273,-41"></polygon>
<polygon fill="none" stroke="#000000" points="272.5,-16 272.5,-66 323.5,-66 323.5,-16 272.5,-16"></polygon>
</g>
</g>
<!-- CPM_0_1 -->
<g id="node3" class="node">
<title>CPM_0_1</title>
<g id="a_node3">
<polygon fill="#fffea3" stroke="#000000" points="1469,-378.5 1469,-428.1 1523,-428.1 1523,-378.5 1469,-378.5"></polygon>
<text text-anchor="middle" x="1495.7819" y="-411.5" font-family="Times,serif" font-size="14.00" fill="#000000">CPM</text>
<polyline fill="none" stroke="#000000" points="1469,-403.3 1522.5638,-403.3 "></polyline>
<text text-anchor="middle" x="1495.7819" y="-386.7" font-family="Times,serif" font-size="14.00" fill="#000000">1</text>
</g>
</g>
<!-- cell_center_0 -->
<g id="node4" class="node">
<title>cell_center_0</title>
<ellipse fill="#b5b426" stroke="#000000" cx="1529" cy="-225" rx="50.9588" ry="18"></ellipse>
<ellipse fill="none" stroke="#000000" cx="1529" cy="-225" rx="54.9572" ry="22"></ellipse>
<text text-anchor="middle" x="1529" y="-220.8" font-family="Times,serif" font-size="14.00" fill="#000000">cell.center</text>
</g>
<!-- CPM_0_1&#45;&gt;cell_center_0 -->
<g id="edge1" class="edge">
<title>CPM_0_1-&gt;cell_center_0</title>
<path fill="none" stroke="#8f100d" stroke-width="3" d="M1482.9834,-378.1917C1473.553,-356.5843 1463.9193,-324.7566 1473,-298 1478.6007,-281.4975 1489.5987,-265.8022 1500.3764,-253.2234"></path>
<polygon fill="#8f100d" stroke="#8f100d" stroke-width="3" points="1503.2954,-255.2109 1507.3682,-245.4302 1498.085,-250.5363 1503.2954,-255.2109"></polygon>
</g>
<!-- cell_type_0 -->
<g id="node5" class="node">
<title>cell_type_0</title>
<ellipse fill="#d3d247" stroke="#000000" cx="1530" cy="-320" rx="44.0361" ry="18"></ellipse>
<ellipse fill="none" stroke="#000000" cx="1530" cy="-320" rx="48.0377" ry="22"></ellipse>
<text text-anchor="middle" x="1530" y="-315.8" font-family="Times,serif" font-size="14.00" fill="#000000">cell.type</text>
</g>
<!-- CPM_0_1&#45;&gt;cell_type_0 -->
<g id="edge2" class="edge">
<title>CPM_0_1-&gt;cell_type_0</title>
<path fill="none" stroke="#8f100d" stroke-width="3" d="M1506.2011,-378.3073C1509.6774,-369.7905 1513.6077,-360.1611 1517.2581,-351.2176"></path>
<polygon fill="#8f100d" stroke="#8f100d" stroke-width="3" points="1520.536,-352.4485 1521.0745,-341.8674 1514.055,-349.8032 1520.536,-352.4485"></polygon>
</g>
<!-- Gnuplotter_0_250 -->
<g id="node2" class="node">
<title>Gnuplotter_0_250</title>
<g id="a_node2">">
<polygon fill="#fffea3" stroke="transparent" points="1438,-152 1366,-152 1366,-102 1438,-102 1438,-152"></polygon>
<text text-anchor="start" x="1369.507" y="-134.5" font-family="times" font-size="15.00" fill="#000000">Gnuplotter</text>
<text text-anchor="start" x="1390.75" y="-110.5" font-family="times" font-size="15.00" fill="#000000">250</text>
<polygon fill="#000000" stroke="#000000" points="1366,-127 1366,-127 1438,-127 1438,-127 1366,-127"></polygon>
<polygon fill="none" stroke="#000000" points="1366,-102 1366,-152 1438,-152 1438,-102 1366,-102"></polygon>
</g>
</g>
<!-- clone_0 -->
<g id="node6" class="node">
<title>clone_0</title>
<ellipse fill="#d3d247" stroke="#000000" cx="1402" cy="-225" rx="31.9067" ry="18"></ellipse>
<ellipse fill="none" stroke="#000000" cx="1402" cy="-225" rx="35.9012" ry="22"></ellipse>
<text text-anchor="middle" x="1402" y="-220.8" font-family="Times,serif" font-size="14.00" fill="#000000">clone</text>
</g>
<!-- clone_0&#45;&gt;Gnuplotter_0_250 -->
<g id="edge26" class="edge">
<title>clone_0-&gt;Gnuplotter_0_250</title>
<path fill="none" stroke="#112c5f" stroke-width="2" d="M1402,-202.7623C1402,-190.9092 1402,-176.0422 1402,-162.6243"></path>
<polygon fill="#112c5f" stroke="#112c5f" stroke-width="2" points="1405.5001,-162.2593 1402,-152.2593 1398.5001,-162.2594 1405.5001,-162.2593"></polygon>
</g>
<!-- clone_0&#45;&gt;clone_0 -->
<g id="edge27" class="edge">
<title>clone_0-&gt;clone_0</title>
<path fill="none" stroke="#38568c" stroke-dasharray="5,2" d="M1426.1327,-241.3072C1441.3691,-245.3986 1455.9506,-239.9629 1455.9506,-225 1455.9506,-210.0371 1441.3691,-204.6014 1426.1327,-208.6928"></path>
</g>
<!-- num_A_0 -->
<g id="node7" class="node">
<title>num_A_0</title>
<g id="a_node7">
<ellipse fill="#d3d247" stroke="#000000" cx="56" cy="-127" rx="40.0108" ry="18"></ellipse>
<text text-anchor="middle" x="56" y="-122.8" font-family="Times,serif" font-size="14.00" fill="#000000">num_A</text>
</g>
</g>
<!-- num_A_0&#45;&gt;Logger_0_100 -->
<g id="edge35" class="edge">
<title>num_A_0-&gt;Logger_0_100</title>
<path fill="none" stroke="#112c5f" stroke-width="2" d="M76.1016,-111.2978C84.6393,-105.2165 94.9332,-98.6211 105,-94 157.3245,-69.9807 222.7674,-54.8511 262.4275,-47.1659"></path>
<polygon fill="#112c5f" stroke="#112c5f" stroke-width="2" points="263.236,-50.5752 272.4143,-45.2829 261.939,-43.6964 263.236,-50.5752"></polygon>
</g>
<!-- num_B_0 -->
<g id="node8" class="node">
<title>num_B_0</title>
<g id="a_node8">
<ellipse fill="#d3d247" stroke="#000000" cx="153" cy="-127" rx="39.4486" ry="18"></ellipse>
<text text-anchor="middle" x="153" y="-122.8" font-family="Times,serif" font-size="14.00" fill="#000000">num_B</text>
</g>
</g>
<!-- num_B_0&#45;&gt;Logger_0_100 -->
<g id="edge36" class="edge">
<title>num_B_0-&gt;Logger_0_100</title>
<path fill="none" stroke="#112c5f" stroke-width="2" d="M174.684,-111.7965C183.1051,-106.0515 192.8985,-99.5622 202,-94 222.0112,-81.7704 244.9928,-69.0382 263.4525,-59.1189"></path>
<polygon fill="#112c5f" stroke="#112c5f" stroke-width="2" points="265.2133,-62.1464 272.3853,-54.3482 261.9156,-55.9718 265.2133,-62.1464"></polygon>
</g>
<!-- num_C_0 -->
<g id="node9" class="node">
<title>num_C_0</title>
<g id="a_node9">
<ellipse fill="#d3d247" stroke="#000000" cx="250" cy="-127" rx="39.4486" ry="18"></ellipse>
<text text-anchor="middle" x="250" y="-122.8" font-family="Times,serif" font-size="14.00" fill="#000000">num_C</text>
</g>
</g>
<!-- num_C_0&#45;&gt;Logger_0_100 -->
<g id="edge37" class="edge">
<title>num_C_0-&gt;Logger_0_100</title>
<path fill="none" stroke="#112c5f" stroke-width="2" d="M259.9456,-109.1807C265.4059,-99.3978 272.3647,-86.93 278.8344,-75.3383"></path>
<polygon fill="#112c5f" stroke="#112c5f" stroke-width="2" points="282.0628,-76.7356 283.8803,-66.2978 275.9504,-73.324 282.0628,-76.7356"></polygon>
</g>
<!-- num_D_0 -->
<g id="node10" class="node">
<title>num_D_0</title>
<g id="a_node10">
<ellipse fill="#d3d247" stroke="#000000" cx="347" cy="-127" rx="40.0108" ry="18"></ellipse>
<text text-anchor="middle" x="347" y="-122.8" font-family="Times,serif" font-size="14.00" fill="#000000">num_D</text>
</g>
</g>
<!-- num_D_0&#45;&gt;Logger_0_100 -->
<g id="edge38" class="edge">
<title>num_D_0-&gt;Logger_0_100</title>
<path fill="none" stroke="#112c5f" stroke-width="2" d="M336.8472,-109.1807C331.218,-99.301 324.0286,-86.6828 317.3688,-74.9942"></path>
<polygon fill="#112c5f" stroke="#112c5f" stroke-width="2" points="320.4055,-73.2538 312.4139,-66.2978 314.3234,-76.7192 320.4055,-73.2538"></polygon>
</g>
<!-- num_E_0 -->
<g id="node11" class="node">
<title>num_E_0</title>
<g id="a_node11">
<ellipse fill="#d3d247" stroke="#000000" cx="444" cy="-127" rx="38.8671" ry="18"></ellipse>
<text text-anchor="middle" x="444" y="-122.8" font-family="Times,serif" font-size="14.00" fill="#000000">num_E</text>
</g>
</g>
<!-- num_E_0&#45;&gt;Logger_0_100 -->
<g id="edge39" class="edge">
<title>num_E_0-&gt;Logger_0_100</title>
<path fill="none" stroke="#112c5f" stroke-width="2" d="M422.8176,-111.7185C414.5756,-105.9639 404.9716,-99.4885 396,-94 375.4396,-81.4218 351.6757,-68.5313 332.6984,-58.6127"></path>
<polygon fill="#112c5f" stroke="#112c5f" stroke-width="2" points="334.2901,-55.4955 323.8018,-53.9966 331.0662,-61.7089 334.2901,-55.4955"></polygon>
</g>
<!-- size_0 -->
<g id="node12" class="node">
<title>size_0</title>
<ellipse fill="#b5b426" stroke="#000000" cx="1315" cy="-320" rx="27" ry="18"></ellipse>
<text text-anchor="middle" x="1315" y="-315.8" font-family="Times,serif" font-size="14.00" fill="#000000">size</text>
</g>
<!-- size_y_0 -->
<g id="node13" class="node">
<title>size_y_0</title>
<ellipse fill="#d3d247" stroke="#000000" cx="1315" cy="-225" rx="33.0851" ry="18"></ellipse>
<text text-anchor="middle" x="1315" y="-220.8" font-family="Times,serif" font-size="14.00" fill="#000000">size.y</text>
</g>
<!-- size_0&#45;&gt;size_y_0 -->
<g id="edge41" class="edge">
<title>size_0-&gt;size_y_0</title>
<path fill="none" stroke="#38568c" stroke-dasharray="5,2" d="M1315,-301.683C1315,-284.8607 1315,-260.0653 1315,-243.2607"></path>
</g>
<!-- CellDeath_2_1 -->
<g id="node28" class="node">
<title>CellDeath_2_1</title>
<g id="a_node28">">
<polygon fill="#fffea3" stroke="transparent" points="1264,-152 1196,-152 1196,-102 1264,-102 1264,-152"></polygon>
<text text-anchor="start" x="1199.5935" y="-134.5" font-family="times" font-size="15.00" fill="#000000">CellDeath</text>
<text text-anchor="start" x="1226.25" y="-110.5" font-family="times" font-size="15.00" fill="#000000">1</text>
<polygon fill="#000000" stroke="#000000" points="1196,-127 1196,-127 1264,-127 1264,-127 1196,-127"></polygon>
<polygon fill="none" stroke="#000000" points="1196,-102 1196,-152 1264,-152 1264,-102 1196,-102"></polygon>
</g>
</g>
<!-- size_y_0&#45;&gt;CellDeath_2_1 -->
<g id="edge42" class="edge">
<title>size_y_0-&gt;CellDeath_2_1</title>
<path fill="none" stroke="#112c5f" stroke-width="2" d="M1300.5809,-208.3756C1289.1023,-195.1415 1272.6771,-176.2042 1258.5597,-159.9276"></path>
<polygon fill="#112c5f" stroke="#112c5f" stroke-width="2" points="1261.0428,-157.4488 1251.8465,-152.1877 1255.7547,-162.0354 1261.0428,-157.4488"></polygon>
</g>
<!-- time_0 -->
<g id="node14" class="node">
<title>time_0</title>
<g id="a_node14">
<ellipse fill="#d3d247" stroke="#000000" cx="1830" cy="-487.1" rx="28.4069" ry="18"></ellipse>
<text text-anchor="middle" x="1830" y="-482.9" font-family="Times,serif" font-size="14.00" fill="#000000">time</text>
</g>
</g>
<!-- time_0&#45;&gt;Logger_0_100 -->
<g id="edge47" class="edge">
<title>time_0-&gt;Logger_0_100</title>
<path fill="none" stroke="#112c5f" stroke-width="2" d="M1856.483,-480.6819C1866.8119,-476.7787 1877.6719,-470.6371 1884,-461.1 1918.7146,-408.7812 1891,-382.7882 1891,-320 1891,-320 1891,-320 1891,-225 1891,-19.2568 1651.0341,-120.4642 1447,-94 1223.8019,-65.0502 502.8115,-45.9901 333.7236,-41.8491"></path>
<polygon fill="#112c5f" stroke="#112c5f" stroke-width="2" points="333.6987,-38.3475 323.6166,-41.6033 333.5285,-45.3454 333.6987,-38.3475"></polygon>
</g>
<!-- CellDivision_1_1 -->
<g id="node16" class="node">
<title>CellDivision_1_1</title>
<g id="a_node16">">
<polygon fill="#fffea3" stroke="transparent" points="1872,-428.3 1788,-428.3 1788,-378.3 1872,-378.3 1872,-428.3"></polygon>
<text text-anchor="start" x="1791.6668" y="-410.8" font-family="times" font-size="15.00" fill="#000000">CellDivision</text>
<text text-anchor="start" x="1826.25" y="-386.8" font-family="times" font-size="15.00" fill="#000000">1</text>
<polygon fill="#000000" stroke="#000000" points="1788,-403.3 1788,-403.3 1872,-403.3 1872,-403.3 1788,-403.3"></polygon>
<polygon fill="none" stroke="#000000" points="1788,-378.3 1788,-428.3 1872,-428.3 1872,-378.3 1788,-378.3"></polygon>
</g>
</g>
<!-- time_0&#45;&gt;CellDivision_1_1 -->
<g id="edge45" class="edge">
<title>time_0-&gt;CellDivision_1_1</title>
<path fill="none" stroke="#112c5f" stroke-width="2" d="M1830,-468.9166C1830,-460.0353 1830,-449.0343 1830,-438.5944"></path>
<polygon fill="#112c5f" stroke="#112c5f" stroke-width="2" points="1833.5001,-438.441 1830,-428.441 1826.5001,-438.441 1833.5001,-438.441"></polygon>
</g>
<!-- CellDivision_2_1 -->
<g id="node27" class="node">
<title>CellDivision_2_1</title>
<g id="a_node27">">
<polygon fill="#fffea3" stroke="transparent" points="1158,-428.3 1074,-428.3 1074,-378.3 1158,-378.3 1158,-428.3"></polygon>
<text text-anchor="start" x="1077.6668" y="-410.8" font-family="times" font-size="15.00" fill="#000000">CellDivision</text>
<text text-anchor="start" x="1112.25" y="-386.8" font-family="times" font-size="15.00" fill="#000000">1</text>
<polygon fill="#000000" stroke="#000000" points="1074,-403.3 1074,-403.3 1158,-403.3 1158,-403.3 1074,-403.3"></polygon>
<polygon fill="none" stroke="#000000" points="1074,-378.3 1074,-428.3 1158,-428.3 1158,-378.3 1074,-378.3"></polygon>
</g>
</g>
<!-- time_0&#45;&gt;CellDivision_2_1 -->
<g id="edge46" class="edge">
<title>time_0-&gt;CellDivision_2_1</title>
<path fill="none" stroke="#112c5f" stroke-width="2" d="M1801.6499,-486.6096C1678.645,-484.4025 1196.0359,-474.8941 1167,-461.1 1155.4788,-455.6266 1145.4671,-446.2168 1137.4379,-436.5603"></path>
<polygon fill="#112c5f" stroke="#112c5f" stroke-width="2" points="1140.062,-434.2326 1131.1701,-428.4719 1134.5289,-438.5203 1140.062,-434.2326"></polygon>
</g>
<!-- ChangeCellType_1_1 -->
<g id="node15" class="node">
<title>ChangeCellType_1_1</title>
<g id="a_node15">">
<polygon fill="#fffea3" stroke="transparent" points="1817.5,-250 1708.5,-250 1708.5,-200 1817.5,-200 1817.5,-250"></polygon>
<text text-anchor="start" x="1712.6793" y="-232.5" font-family="times" font-size="15.00" fill="#000000">ChangeCellType</text>
<text text-anchor="start" x="1759.75" y="-208.5" font-family="times" font-size="15.00" fill="#000000">1</text>
<polygon fill="#000000" stroke="#000000" points="1709,-225 1709,-225 1818,-225 1818,-225 1709,-225"></polygon>
<polygon fill="none" stroke="#000000" points="1708.5,-200 1708.5,-250 1817.5,-250 1817.5,-200 1708.5,-200"></polygon>
</g>
</g>
<!-- cell_center_1 -->
<g id="node17" class="node">
<title>cell_center_1</title>
<ellipse fill="#b5b426" stroke="#000000" cx="1667" cy="-320" rx="50.9572" ry="18"></ellipse>
<text text-anchor="middle" x="1667" y="-315.8" font-family="Times,serif" font-size="14.00" fill="#000000">cell.center</text>
</g>
<!-- CellDivision_1_1&#45;&gt;cell_center_1 -->
<g id="edge4" class="edge">
<title>CellDivision_1_1-&gt;cell_center_1</title>
<path fill="none" stroke="#8f100d" stroke-width="3" d="M1787.5992,-381.6314C1762.1718,-368.6369 1730.0899,-352.2416 1705.4088,-339.6285"></path>
<polygon fill="#8f100d" stroke="#8f100d" stroke-width="3" points="1706.8385,-336.4287 1696.3412,-334.9946 1703.653,-342.6619 1706.8385,-336.4287"></polygon>
</g>
<!-- s_1 -->
<g id="node20" class="node">
<title>s_1</title>
<g id="a_node20">
<ellipse fill="#d3d247" stroke="#000000" cx="1763" cy="-320" rx="27" ry="18"></ellipse>
<text text-anchor="middle" x="1763" y="-315.8" font-family="Times,serif" font-size="14.00" fill="#000000">s</text>
</g>
</g>
<!-- CellDivision_1_1&#45;&gt;s_1 -->
<g id="edge5" class="edge">
<title>CellDivision_1_1-&gt;s_1</title>
<path fill="none" stroke="#8f100d" stroke-width="3" d="M1809.5337,-377.8546C1800.8491,-367.0572 1790.78,-354.5384 1782.234,-343.9133"></path>
<polygon fill="#8f100d" stroke="#8f100d" stroke-width="3" points="1784.7572,-341.4659 1775.7624,-335.8672 1779.3026,-345.8531 1784.7572,-341.4659"></polygon>
</g>
<!-- t_d_1 -->
<g id="node21" class="node">
<title>t_d_1</title>
<g id="a_node21">
<ellipse fill="#d3d247" stroke="#000000" cx="1835" cy="-320" rx="27" ry="18"></ellipse>
<text text-anchor="middle" x="1835" y="-315.8" font-family="Times,serif" font-size="14.00" fill="#000000">t_d</text>
</g>
</g>
<!-- CellDivision_1_1&#45;&gt;t_d_1 -->
<g id="edge6" class="edge">
<title>CellDivision_1_1-&gt;t_d_1</title>
<path fill="none" stroke="#8f100d" stroke-width="3" d="M1825.2536,-377.8546C1825.237,-368.2974 1825.85,-357.3916 1826.942,-347.6441"></path>
<polygon fill="#8f100d" stroke="#8f100d" stroke-width="3" points="1830.4228,-348.0219 1828.3079,-337.6403 1823.4872,-347.0749 1830.4228,-348.0219"></polygon>
</g>
<!-- cell_center_1&#45;&gt;cell_center_0 -->
<g id="edge15" class="edge">
<title>cell_center_1-&gt;cell_center_0</title>
<path fill="none" stroke="#38568c" stroke-dasharray="5,2" d="M1643.5902,-303.8845C1619.5979,-287.3681 1582.2945,-261.6882 1556.8122,-244.1461"></path>
</g>
<!-- cell_type_1 -->
<g id="node18" class="node">
<title>cell_type_1</title>
<g id="a_node18">
<ellipse fill="#d3d247" stroke="#000000" cx="1644" cy="-403.3" rx="44.0377" ry="18"></ellipse>
<text text-anchor="middle" x="1644" y="-399.1" font-family="Times,serif" font-size="14.00" fill="#000000">cell.type</text>
</g>
</g>
<!-- cell_type_1&#45;&gt;cell_type_0 -->
<g id="edge24" class="edge">
<title>cell_type_1-&gt;cell_type_0</title>
<path fill="none" stroke="#38568c" stroke-dasharray="5,2" d="M1622.2891,-387.4358C1603.2962,-373.5577 1575.6853,-353.3823 1555.616,-338.7177"></path>
</g>
<!-- clone_1 -->
<g id="node19" class="node">
<title>clone_1</title>
<g id="a_node19">
<ellipse fill="#d3d247" stroke="#000000" cx="1738" cy="-403.3" rx="31.9012" ry="18"></ellipse>
<text text-anchor="middle" x="1738" y="-399.1" font-family="Times,serif" font-size="14.00" fill="#000000">clone</text>
</g>
</g>
<!-- clone_1&#45;&gt;clone_0 -->
<g id="edge28" class="edge">
<title>clone_1-&gt;clone_0</title>
<path fill="none" stroke="#38568c" stroke-dasharray="5,2" d="M1717.1195,-389.4547C1710.786,-385.5195 1703.7228,-381.387 1697,-378 1658.5257,-358.6162 1638.1574,-371.7526 1607,-342 1591.4645,-327.1649 1603.2123,-312.0923 1587,-298 1544.3324,-260.9119 1516.871,-284.4822 1465,-262 1451.7325,-256.2495 1437.7882,-248.2834 1426.401,-241.2152"></path>
</g>
<!-- s_1&#45;&gt;ChangeCellType_1_1 -->
<g id="edge40" class="edge">
<title>s_1-&gt;ChangeCellType_1_1</title>
<path fill="none" stroke="#112c5f" stroke-width="2" d="M1763,-301.683C1763,-289.9964 1763,-274.4617 1763,-260.4315"></path>
<polygon fill="#112c5f" stroke="#112c5f" stroke-width="2" points="1766.5001,-260.0844 1763,-250.0844 1759.5001,-260.0844 1766.5001,-260.0844"></polygon>
</g>
<!-- t_d_1&#45;&gt;CellDivision_1_1 -->
<g id="edge43" class="edge">
<title>t_d_1-&gt;CellDivision_1_1</title>
<path fill="none" stroke="#112c5f" stroke-width="2" d="M1839.5859,-337.8987C1839.9663,-346.6401 1839.6571,-357.478 1838.815,-367.8006"></path>
<polygon fill="#112c5f" stroke="#112c5f" stroke-width="2" points="1835.3222,-367.5539 1837.8011,-377.8546 1842.2869,-368.2563 1835.3222,-367.5539"></polygon>
</g>
<!-- Mapper_2_15781495241074175950_100 -->
<g id="node22" class="node">
<title>Mapper_2_15781495241074175950_100</title>
<g id="a_node22">">
<polygon fill="#fffea3" stroke="transparent" points="607,-262 499,-262 499,-188 607,-188 607,-262"></polygon>
<text text-anchor="start" x="529.678" y="-244.5" font-family="times" font-size="15.00" fill="#000000">Mapper</text>
<text text-anchor="start" x="502.591" y="-221.5" font-family="times" font-style="italic" font-size="15.00" fill="#000000">'Count Clone A'</text>
<text text-anchor="start" x="541.75" y="-196.5" font-family="times" font-size="15.00" fill="#000000">100</text>
<polygon fill="#000000" stroke="#000000" points="499,-213 499,-213 607,-213 607,-213 499,-213"></polygon>
<polygon fill="none" stroke="#000000" points="499,-188 499,-262 607,-262 607,-188 499,-188"></polygon>
</g>
</g>
<!-- Mapper_2_15781495241074175950_100&#45;&gt;num_A_0 -->
<g id="edge12" class="edge">
<title>Mapper_2_15781495241074175950_100-&gt;num_A_0</title>
<path fill="none" stroke="#8f100d" stroke-width="3" d="M498.9708,-221.6126C413.4792,-215.0603 242.6025,-197.0893 105,-152 99.9674,-150.3509 94.8159,-148.2432 89.8332,-145.953"></path>
<polygon fill="#8f100d" stroke="#8f100d" stroke-width="3" points="91.0547,-142.654 80.5348,-141.3964 87.9744,-148.9398 91.0547,-142.654"></polygon>
</g>
<!-- cell_center_2 -->
<g id="node29" class="node">
<title>cell_center_2</title>
<ellipse fill="#b5b426" stroke="#000000" cx="991" cy="-320" rx="50.9572" ry="18"></ellipse>
<text text-anchor="middle" x="991" y="-315.8" font-family="Times,serif" font-size="14.00" fill="#000000">cell.center</text>
</g>
<!-- CellDivision_2_1&#45;&gt;cell_center_2 -->
<g id="edge7" class="edge">
<title>CellDivision_2_1-&gt;cell_center_2</title>
<path fill="none" stroke="#8f100d" stroke-width="3" d="M1078.1567,-378.0812C1060.6561,-366.4188 1040.084,-352.7096 1023.3222,-341.5395"></path>
<polygon fill="#8f100d" stroke="#8f100d" stroke-width="3" points="1025.2031,-338.587 1014.9407,-335.9541 1021.3213,-344.4121 1025.2031,-338.587"></polygon>
</g>
<!-- d_2 -->
<g id="node33" class="node">
<title>d_2</title>
<g id="a_node33">
<ellipse fill="#d3d247" stroke="#000000" cx="1087" cy="-320" rx="27" ry="18"></ellipse>
<text text-anchor="middle" x="1087" y="-315.8" font-family="Times,serif" font-size="14.00" fill="#000000">d</text>
</g>
</g>
<!-- CellDivision_2_1&#45;&gt;d_2 -->
<g id="edge8" class="edge">
<title>CellDivision_2_1-&gt;d_2</title>
<path fill="none" stroke="#8f100d" stroke-width="3" d="M1107.1415,-377.8546C1103.7788,-368.1958 1099.9367,-357.1594 1096.5158,-347.3334"></path>
<polygon fill="#8f100d" stroke="#8f100d" stroke-width="3" points="1099.7346,-345.9336 1093.1413,-337.6403 1093.1238,-348.2351 1099.7346,-345.9336"></polygon>
</g>
<!-- t_d_2 -->
<g id="node34" class="node">
<title>t_d_2</title>
<g id="a_node34">
<ellipse fill="#d3d247" stroke="#000000" cx="1159" cy="-320" rx="27" ry="18"></ellipse>
<text text-anchor="middle" x="1159" y="-315.8" font-family="Times,serif" font-size="14.00" fill="#000000">t_d</text>
</g>
</g>
<!-- CellDivision_2_1&#45;&gt;t_d_2 -->
<g id="edge9" class="edge">
<title>CellDivision_2_1-&gt;t_d_2</title>
<path fill="none" stroke="#8f100d" stroke-width="3" d="M1122.8613,-377.8546C1127.7047,-367.197 1134.096,-354.8623 1140.2405,-344.3269"></path>
<polygon fill="#8f100d" stroke="#8f100d" stroke-width="3" points="1143.3299,-345.9827 1145.5317,-335.6192 1137.3477,-342.3477 1143.3299,-345.9827"></polygon>
</g>
<!-- CellDeath_2_1&#45;&gt;cell_center_2 -->
<g id="edge3" class="edge">
<title>CellDeath_2_1-&gt;cell_center_2</title>
<path fill="none" stroke="#8f100d" stroke-width="3" d="M1244.9658,-152.2414C1260.4032,-181.9396 1278.8754,-231.1055 1253,-262 1223.7234,-296.9556 1095.0176,-286.1061 1051,-298 1045.6446,-299.4471 1040.0924,-301.1681 1034.6245,-303.0009"></path>
<polygon fill="#8f100d" stroke="#8f100d" stroke-width="3" points="1033.2206,-299.7838 1024.934,-306.3856 1035.5289,-306.3923 1033.2206,-299.7838"></polygon>
</g>
<!-- Mapper_2_14035823859268739415_100 -->
<g id="node25" class="node">
<title>Mapper_2_14035823859268739415_100</title>
<g id="a_node25">">
<polygon fill="#fffea3" stroke="transparent" points="984,-262 876,-262 876,-188 984,-188 984,-262"></polygon>
<text text-anchor="start" x="906.678" y="-244.5" font-family="times" font-size="15.00" fill="#000000">Mapper</text>
<text text-anchor="start" x="879.591" y="-221.5" font-family="times" font-style="italic" font-size="15.00" fill="#000000">'Count Clone D'</text>
<text text-anchor="start" x="918.75" y="-196.5" font-family="times" font-size="15.00" fill="#000000">100</text>
<polygon fill="#000000" stroke="#000000" points="876,-213 876,-213 984,-213 984,-213 876,-213"></polygon>
<polygon fill="none" stroke="#000000" points="876,-188 876,-262 984,-262 984,-188 876,-188"></polygon>
</g>
</g>
<!-- Mapper_2_14035823859268739415_100&#45;&gt;num_D_0 -->
<g id="edge11" class="edge">
<title>Mapper_2_14035823859268739415_100-&gt;num_D_0</title>
<path fill="none" stroke="#8f100d" stroke-width="3" d="M875.7147,-191.1574C872.8189,-189.975 869.905,-188.9103 867,-188 666.6612,-125.2242 598.1104,-208.8138 396,-152 390.7135,-150.514 385.3298,-148.4342 380.1593,-146.1025"></path>
<polygon fill="#8f100d" stroke="#8f100d" stroke-width="3" points="381.6716,-142.9461 371.1495,-141.707 378.6024,-149.2373 381.6716,-142.9461"></polygon>
</g>
<!-- Mapper_2_964202224160315963_100 -->
<g id="node23" class="node">
<title>Mapper_2_964202224160315963_100</title>
<g id="a_node23">">
<polygon fill="#fffea3" stroke="transparent" points="732.5,-262 625.5,-262 625.5,-188 732.5,-188 732.5,-262"></polygon>
<text text-anchor="start" x="656.178" y="-244.5" font-family="times" font-size="15.00" fill="#000000">Mapper</text>
<text text-anchor="start" x="629.5035" y="-221.5" font-family="times" font-style="italic" font-size="15.00" fill="#000000">'Count Clone B'</text>
<text text-anchor="start" x="668.25" y="-196.5" font-family="times" font-size="15.00" fill="#000000">100</text>
<polygon fill="#000000" stroke="#000000" points="626,-213 626,-213 733,-213 733,-213 626,-213"></polygon>
<polygon fill="none" stroke="#000000" points="625.5,-188 625.5,-262 732.5,-262 732.5,-188 625.5,-188"></polygon>
</g>
</g>
<!-- Mapper_2_964202224160315963_100&#45;&gt;num_B_0 -->
<g id="edge14" class="edge">
<title>Mapper_2_964202224160315963_100-&gt;num_B_0</title>
<path fill="none" stroke="#8f100d" stroke-width="3" d="M625.4257,-191.4952C622.2953,-190.1831 619.1418,-189.0026 616,-188 440.0466,-131.8537 379.5393,-202.9096 202,-152 196.7214,-150.4863 191.342,-148.3914 186.1734,-146.0527"></path>
<polygon fill="#8f100d" stroke="#8f100d" stroke-width="3" points="187.6865,-142.8966 177.1649,-141.6526 184.6143,-149.1864 187.6865,-142.8966"></polygon>
</g>
<!-- Mapper_2_18366776500739903042_100 -->
<g id="node24" class="node">
<title>Mapper_2_18366776500739903042_100</title>
<g id="a_node24">">
<polygon fill="#fffea3" stroke="transparent" points="857.5,-262 750.5,-262 750.5,-188 857.5,-188 857.5,-262"></polygon>
<text text-anchor="start" x="781.178" y="-244.5" font-family="times" font-size="15.00" fill="#000000">Mapper</text>
<text text-anchor="start" x="754.5035" y="-221.5" font-family="times" font-style="italic" font-size="15.00" fill="#000000">'Count Clone C'</text>
<text text-anchor="start" x="793.25" y="-196.5" font-family="times" font-size="15.00" fill="#000000">100</text>
<polygon fill="#000000" stroke="#000000" points="751,-213 751,-213 858,-213 858,-213 751,-213"></polygon>
<polygon fill="none" stroke="#000000" points="750.5,-188 750.5,-262 857.5,-262 857.5,-188 750.5,-188"></polygon>
</g>
</g>
<!-- Mapper_2_18366776500739903042_100&#45;&gt;num_C_0 -->
<g id="edge13" class="edge">
<title>Mapper_2_18366776500739903042_100-&gt;num_C_0</title>
<path fill="none" stroke="#8f100d" stroke-width="3" d="M750.2358,-191.0244C747.4992,-189.897 744.7461,-188.878 742,-188 553.4244,-127.7034 488.2411,-206.8158 298,-152 292.9384,-150.5415 287.7917,-148.5229 282.8399,-146.2594"></path>
<polygon fill="#8f100d" stroke="#8f100d" stroke-width="3" points="284.1446,-142.9996 273.6313,-141.6877 281.0319,-149.2694 284.1446,-142.9996"></polygon>
</g>
<!-- Mapper_2_12287687964146750822_100 -->
<g id="node26" class="node">
<title>Mapper_2_12287687964146750822_100</title>
<g id="a_node26">">
<polygon fill="#fffea3" stroke="transparent" points="1109.5,-262 1002.5,-262 1002.5,-188 1109.5,-188 1109.5,-262"></polygon>
<text text-anchor="start" x="1033.178" y="-244.5" font-family="times" font-size="15.00" fill="#000000">Mapper</text>
<text text-anchor="start" x="1006.9235" y="-221.5" font-family="times" font-style="italic" font-size="15.00" fill="#000000">'Count Clone E'</text>
<text text-anchor="start" x="1045.25" y="-196.5" font-family="times" font-size="15.00" fill="#000000">100</text>
<polygon fill="#000000" stroke="#000000" points="1003,-213 1003,-213 1110,-213 1110,-213 1003,-213"></polygon>
<polygon fill="none" stroke="#000000" points="1002.5,-188 1002.5,-262 1109.5,-262 1109.5,-188 1002.5,-188"></polygon>
</g>
</g>
<!-- Mapper_2_12287687964146750822_100&#45;&gt;num_E_0 -->
<g id="edge10" class="edge">
<title>Mapper_2_12287687964146750822_100-&gt;num_E_0</title>
<path fill="none" stroke="#8f100d" stroke-width="3" d="M1002.4445,-191.4353C999.3093,-190.1387 996.1496,-188.9778 993,-188 777.681,-121.1513 702.4656,-218.3745 487,-152 482.915,-150.7416 478.802,-149.0351 474.8247,-147.101"></path>
<polygon fill="#8f100d" stroke="#8f100d" stroke-width="3" points="476.3314,-143.9372 465.8672,-142.2782 473.0129,-150.1006 476.3314,-143.9372"></polygon>
</g>
<!-- cell_center_2&#45;&gt;cell_center_0 -->
<g id="edge21" class="edge">
<title>cell_center_2-&gt;cell_center_0</title>
<path fill="none" stroke="#38568c" stroke-dasharray="5,2" d="M1023.8538,-306.1803C1032.5443,-303.0177 1042.0114,-300.0014 1051,-298 1231.2793,-257.858 1288.8553,-317.5433 1465,-262 1477.8522,-257.9473 1490.9282,-250.9947 1501.8823,-244.2027"></path>
</g>
<!-- cell_center_2&#45;&gt;Mapper_2_15781495241074175950_100 -->
<g id="edge18" class="edge">
<title>cell_center_2-&gt;Mapper_2_15781495241074175950_100</title>
<path fill="none" stroke="#112c5f" stroke-width="2" d="M950.4554,-308.9191C935.3318,-305.0661 917.9608,-300.9702 902,-298 776.4818,-274.6415 737.9931,-302.7569 617,-262 616.8974,-261.9654 616.7947,-261.9307 616.6921,-261.8958"></path>
<polygon fill="#112c5f" stroke="#112c5f" stroke-width="2" points="617.7203,-258.5408 607.1311,-258.1966 615.1944,-265.0692 617.7203,-258.5408"></polygon>
</g>
<!-- cell_center_2&#45;&gt;Mapper_2_14035823859268739415_100 -->
<g id="edge17" class="edge">
<title>cell_center_2-&gt;Mapper_2_14035823859268739415_100</title>
<path fill="none" stroke="#112c5f" stroke-width="2" d="M979.5264,-302.1312C973.751,-293.1368 966.4602,-281.7822 959.2615,-270.5712"></path>
<polygon fill="#112c5f" stroke="#112c5f" stroke-width="2" points="962.1495,-268.591 953.8012,-262.0674 956.2592,-272.3732 962.1495,-268.591"></polygon>
</g>
<!-- cell_center_2&#45;&gt;Mapper_2_964202224160315963_100 -->
<g id="edge20" class="edge">
<title>cell_center_2-&gt;Mapper_2_964202224160315963_100</title>
<path fill="none" stroke="#112c5f" stroke-width="2" d="M949.3882,-309.522C934.4596,-305.8137 917.4907,-301.6569 902,-298 831.061,-281.2536 809.7923,-288.7767 742,-262 741.9041,-261.9621 741.8083,-261.9241 741.7124,-261.886"></path>
<polygon fill="#112c5f" stroke="#112c5f" stroke-width="2" points="743.3215,-258.769 732.7547,-257.9988 740.5348,-265.1905 743.3215,-258.769"></polygon>
</g>
<!-- cell_center_2&#45;&gt;Mapper_2_18366776500739903042_100 -->
<g id="edge19" class="edge">
<title>cell_center_2-&gt;Mapper_2_18366776500739903042_100</title>
<path fill="none" stroke="#112c5f" stroke-width="2" d="M958.7414,-305.9087C933.4757,-294.634 897.6038,-278.0992 867,-262 866.9053,-261.9502 866.8105,-261.9003 866.7157,-261.8503"></path>
<polygon fill="#112c5f" stroke="#112c5f" stroke-width="2" points="868.2323,-258.6917 857.7694,-257.0245 864.909,-264.8525 868.2323,-258.6917"></polygon>
</g>
<!-- cell_center_2&#45;&gt;Mapper_2_12287687964146750822_100 -->
<g id="edge16" class="edge">
<title>cell_center_2-&gt;Mapper_2_12287687964146750822_100</title>
<path fill="none" stroke="#112c5f" stroke-width="2" d="M1003.226,-302.1312C1009.3801,-293.1368 1017.149,-281.7822 1024.8197,-270.5712"></path>
<polygon fill="#112c5f" stroke="#112c5f" stroke-width="2" points="1027.8798,-272.2969 1030.6381,-262.0674 1022.1026,-268.3441 1027.8798,-272.2969"></polygon>
</g>
<!-- cell_center_y_2 -->
<g id="node30" class="node">
<title>cell_center_y_2</title>
<ellipse fill="#d3d247" stroke="#000000" cx="1186" cy="-225" rx="58.4435" ry="18"></ellipse>
<text text-anchor="middle" x="1186" y="-220.8" font-family="Times,serif" font-size="14.00" fill="#000000">cell.center.y</text>
</g>
<!-- cell_center_2&#45;&gt;cell_center_y_2 -->
<g id="edge22" class="edge">
<title>cell_center_2-&gt;cell_center_y_2</title>
<path fill="none" stroke="#38568c" stroke-dasharray="5,2" d="M1023.687,-306.0404C1049.7521,-294.7054 1087.0533,-278.0276 1119,-262 1132.0646,-255.4455 1146.2721,-247.6925 1158.2282,-240.981"></path>
</g>
<!-- cell_center_y_2&#45;&gt;CellDeath_2_1 -->
<g id="edge23" class="edge">
<title>cell_center_y_2-&gt;CellDeath_2_1</title>
<path fill="none" stroke="#112c5f" stroke-width="2" d="M1194.0703,-207.0253C1199.7819,-194.304 1207.6214,-176.8432 1214.5205,-161.4772"></path>
<polygon fill="#112c5f" stroke="#112c5f" stroke-width="2" points="1217.7641,-162.7977 1218.6671,-152.2414 1211.3782,-159.9305 1217.7641,-162.7977"></polygon>
</g>
<!-- cell_type_2 -->
<g id="node31" class="node">
<title>cell_type_2</title>
<g id="a_node31">
<ellipse fill="#d3d247" stroke="#000000" cx="1220" cy="-403.3" rx="44.0377" ry="18"></ellipse>
<text text-anchor="middle" x="1220" y="-399.1" font-family="Times,serif" font-size="14.00" fill="#000000">cell.type</text>
</g>
</g>
<!-- cell_type_2&#45;&gt;cell_type_0 -->
<g id="edge25" class="edge">
<title>cell_type_2-&gt;cell_type_0</title>
<path fill="none" stroke="#38568c" stroke-dasharray="5,2" d="M1245.077,-388.4688C1252.2972,-384.6473 1260.3056,-380.8215 1268,-378 1341.2634,-351.1347 1430.8181,-334.5951 1483.9811,-326.3702"></path>
</g>
<!-- clone_2 -->
<g id="node32" class="node">
<title>clone_2</title>
<g id="a_node32">
<ellipse fill="#d3d247" stroke="#000000" cx="861" cy="-320" rx="31.9012" ry="18"></ellipse>
<text text-anchor="middle" x="861" y="-315.8" font-family="Times,serif" font-size="14.00" fill="#000000">clone</text>
</g>
</g>
<!-- clone_2&#45;&gt;clone_0 -->
<g id="edge34" class="edge">
<title>clone_2-&gt;clone_0</title>
<path fill="none" stroke="#38568c" stroke-dasharray="5,2" d="M887.899,-310.019C900.7695,-305.6394 916.5013,-300.8547 931,-298 1117.4288,-261.293 1180.9883,-333.5751 1357,-262 1366.9314,-257.9614 1376.3535,-250.9237 1383.9853,-244.063"></path>
</g>
<!-- clone_2&#45;&gt;Mapper_2_15781495241074175950_100 -->
<g id="edge31" class="edge">
<title>clone_2-&gt;Mapper_2_15781495241074175950_100</title>
<path fill="none" stroke="#112c5f" stroke-width="2" d="M829.6895,-315.5476C782.385,-308.163 690.4261,-291.2232 617,-262 616.8994,-261.96 616.7987,-261.9198 616.6981,-261.8795"></path>
<polygon fill="#112c5f" stroke="#112c5f" stroke-width="2" points="617.851,-258.564 607.2855,-257.776 615.0536,-264.9807 617.851,-258.564"></polygon>
</g>
<!-- clone_2&#45;&gt;Mapper_2_14035823859268739415_100 -->
<g id="edge30" class="edge">
<title>clone_2-&gt;Mapper_2_14035823859268739415_100</title>
<path fill="none" stroke="#112c5f" stroke-width="2" d="M873.3358,-303.0159C879.9486,-293.9113 888.4454,-282.2129 896.8366,-270.6598"></path>
<polygon fill="#112c5f" stroke="#112c5f" stroke-width="2" points="899.8548,-272.4601 902.8996,-262.3122 894.191,-268.3464 899.8548,-272.4601"></polygon>
</g>
<!-- clone_2&#45;&gt;Mapper_2_964202224160315963_100 -->
<g id="edge33" class="edge">
<title>clone_2-&gt;Mapper_2_964202224160315963_100</title>
<path fill="none" stroke="#112c5f" stroke-width="2" d="M836.1039,-308.5539C811.8306,-297.2335 774.0014,-279.1626 742,-262 741.9057,-261.9494 741.8113,-261.8988 741.7169,-261.848"></path>
<polygon fill="#112c5f" stroke="#112c5f" stroke-width="2" points="743.2526,-258.6986 732.8003,-256.9664 739.891,-264.8387 743.2526,-258.6986"></polygon>
</g>
<!-- clone_2&#45;&gt;Mapper_2_18366776500739903042_100 -->
<g id="edge32" class="edge">
<title>clone_2-&gt;Mapper_2_18366776500739903042_100</title>
<path fill="none" stroke="#112c5f" stroke-width="2" d="M850.5453,-302.5755C845.2197,-293.6995 838.466,-282.4433 831.7664,-271.2773"></path>
<polygon fill="#112c5f" stroke="#112c5f" stroke-width="2" points="834.5795,-269.163 826.4333,-262.3888 828.5771,-272.7645 834.5795,-269.163"></polygon>
</g>
<!-- clone_2&#45;&gt;Mapper_2_12287687964146750822_100 -->
<g id="edge29" class="edge">
<title>clone_2-&gt;Mapper_2_12287687964146750822_100</title>
<path fill="none" stroke="#112c5f" stroke-width="2" d="M887.217,-309.544C914.1579,-298.5534 957.1154,-280.3418 993,-262 993.0953,-261.9513 993.1906,-261.9025 993.2861,-261.8536"></path>
<polygon fill="#112c5f" stroke="#112c5f" stroke-width="2" points="995.0643,-264.8728 1002.2751,-257.1103 991.7974,-258.6818 995.0643,-264.8728"></polygon>
</g>
<!-- t_d_2&#45;&gt;CellDivision_2_1 -->
<g id="edge44" class="edge">
<title>t_d_2-&gt;CellDivision_2_1</title>
<path fill="none" stroke="#112c5f" stroke-width="2" d="M1155.4209,-337.8987C1151.6633,-347.0043 1146.1196,-358.3848 1140.3138,-369.088"></path>
<polygon fill="#112c5f" stroke="#112c5f" stroke-width="2" points="1137.2373,-367.4187 1135.4088,-377.8546 1143.3461,-370.8367 1137.2373,-367.4187"></polygon>
</g>
</g>
</svg>