<?xml version="1.0" encoding="UTF-8" standalone="no"?> <svg xmlns="http://www.w3.org/2000/svg" xmlns:xlink="http://www.w3.org/1999/xlink" width="926pt" height="267pt" viewBox="0.00 0.00 926 266.8">
<g id="graph0" class="graph" transform="translate(4, 262.79998779296875)">
<title>%0</title>
<polygon fill="#ffffff" stroke="transparent" points="-4,4 -4,-262.8 922,-262.8 922,4 -4,4"></polygon>
<g id="clust1" class="cluster">
<title>cluster</title>
<polygon fill="#234178" fill-opacity="0.184314" stroke="#000000" points="8,-8 8,-250.8 910,-250.8 910,-8 8,-8"></polygon>
<text text-anchor="middle" x="459" y="-234.2" font-family="Times,serif" font-size="14.00" fill="#000000">Global</text>
</g>
<g id="clust2" class="cluster">
<title>cluster_1</title>
<polygon fill="#234178" fill-opacity="0.184314" stroke="#000000" points="80,-80 80,-218 838,-218 838,-80 80,-80"></polygon>
</g>
<!-- Gnuplotter_0_2 -->

<!-- Logger_0_100 -->
<g id="node5" class="node">
<title style="">System_1_0_25</title>
<g id="a_node5">" style="">
<polygon fill="#fffea3" stroke="transparent" points="541,-138 489,-138 489,-88 541,-88 541,-138" style=""></polygon>
<text text-anchor="start" x="492.9163" y="-120.5" font-family="times" font-size="15.00" fill="#000000" style="">System</text>
<text text-anchor="start" x="501.875" y="-96.5" font-family="times" font-size="15.00" fill="#000000" style="">0.25</text>
<polygon fill="#000000" stroke="#000000" points="489,-113 489,-113 541,-113 541,-113 489,-113" style=""></polygon>
<polygon fill="none" stroke="#000000" points="489,-88 489,-138 541,-138 541,-88 489,-88" style=""></polygon>
</g>
</g>
<!-- Logger_0_2 -->
<g id="edge9" class="edge">
<title style="">l_0-&gt;System_1_0_25</title>
<path fill="none" stroke="#112c5f" stroke-width="2" d="M854.8686,-179.727C850.7213,-177.5714 846.3038,-175.5316 842,-174 740.1639,-137.7606 612.4376,-121.9048 551.118,-115.9985"></path>
<polygon fill="#112c5f" stroke="#112c5f" stroke-width="2" points="551.4419,-112.5136 541.1604,-115.0713 550.7928,-119.4834 551.4419,-112.5136"></polygon>
</g>
<!-- l_0 -->
<g id="node1" class="node">
<title>l_0</title>
<g id="a_node1">
<ellipse fill="#b5b426" stroke="#000000" cx="875" cy="-192" rx="27" ry="18"></ellipse>
<text text-anchor="middle" x="875" y="-187.8" font-family="Times,serif" font-size="14.00" fill="#000000">l</text>
</g>
</g>
<!-- l_x_0 -->
<g id="edge11" class="edge">
<title style="">s_0-&gt;System_1_0_25</title>
<path fill="none" stroke="#112c5f" stroke-width="2" d="M63.077,-179.5684C67.2288,-177.4258 71.6618,-175.4314 76,-174 150.9462,-149.2711 387.6475,-125.0066 478.7616,-116.3396"></path>
<polygon fill="#112c5f" stroke="#112c5f" stroke-width="2" points="479.2537,-119.8088 488.8805,-115.3844 478.5958,-112.8397 479.2537,-119.8088"></polygon>
</g>
<!-- l_0&#45;&gt;l_x_0 -->

<!-- l_y_0 -->

<!-- l_0&#45;&gt;l_y_0 -->
<g id="edge7" class="edge">
<title style="">System_1_0_25-&gt;u_0</title>
<path fill="none" stroke="#8f100d" stroke-width="3" d="M503.4112,-87.5691C499.5283,-79.0483 495.1876,-69.5228 491.2554,-60.8939" style=""></path>
<polygon fill="#8f100d" stroke="#8f100d" stroke-width="3" points="494.3674,-59.2822 487.0357,-51.6339 487.9976,-62.185 494.3674,-59.2822" style=""></polygon>
</g>
<!-- System_1_4984503782552369086_0_25 -->
<g id="edge8" class="edge">
<title style="">System_1_0_25-&gt;v_0</title>
<path fill="none" stroke="#8f100d" stroke-width="3" d="M526.5888,-87.5691C530.4717,-79.0483 534.8124,-69.5228 538.7446,-60.8939" style=""></path>
<polygon fill="#8f100d" stroke="#8f100d" stroke-width="3" points="542.0024,-62.185 542.9643,-51.6339 535.6326,-59.2822 542.0024,-62.185" style=""></polygon>
</g>
<!-- l_x_0&#45;&gt;System_1_4984503782552369086_0_25 -->

<!-- l_y_0&#45;&gt;System_1_4984503782552369086_0_25 -->
<g id="edge1" class="edge">
<title style="">B_1-&gt;System_1_0_25</title>
<path fill="none" stroke="#112c5f" stroke-width="2" d="M782.0321,-180.5224C777.1867,-178.1512 771.9876,-175.8239 767,-174 692.405,-146.7224 600.9217,-128.0678 551.2688,-119.1082"></path>
<polygon fill="#112c5f" stroke="#112c5f" stroke-width="2" points="551.7873,-115.6456 541.3295,-117.3438 550.5638,-122.5378 551.7873,-115.6456"></polygon>
</g>
<!-- s_0 -->
<g id="node2" class="node">
<title>s_0</title>
<ellipse fill="#b5b426" stroke="#000000" cx="43" cy="-192" rx="27" ry="18"></ellipse>
<text text-anchor="middle" x="43" y="-187.8" font-family="Times,serif" font-size="14.00" fill="#000000">s</text>
</g>
<!-- s_x_0 -->
<g id="edge2" class="edge">
<title style="">D_1-&gt;System_1_0_25</title>
<path fill="none" stroke="#112c5f" stroke-width="2" d="M709.5214,-180.6611C704.7937,-178.3346 699.7723,-175.9907 695,-174 646.0096,-153.5641 587.5085,-134.7233 550.7968,-123.5432"></path>
<polygon fill="#112c5f" stroke="#112c5f" stroke-width="2" points="551.6309,-120.139 541.046,-120.598 549.6068,-126.84 551.6309,-120.139"></polygon>
</g>
<!-- s_0&#45;&gt;s_x_0 -->

<!-- s_y_0 -->
<g id="edge3" class="edge">
<title style="">E_1-&gt;System_1_0_25</title>
<path fill="none" stroke="#112c5f" stroke-width="2" d="M638.0612,-180.5127C615.0043,-167.8635 577.5541,-147.3179 550.0142,-132.2092"></path>
<polygon fill="#112c5f" stroke="#112c5f" stroke-width="2" points="551.5405,-129.0544 541.0897,-127.3131 548.1735,-135.1915 551.5405,-129.0544"></polygon>
</g>
<!-- s_0&#45;&gt;s_y_0 -->

<!-- s_x_0&#45;&gt;Logger_0_100 -->
<g id="edge4" class="edge">
<title style="">F_1-&gt;System_1_0_25</title>
<path fill="none" stroke="#112c5f" stroke-width="2" d="M572.7751,-176.3921C564.7944,-167.6356 554.5268,-156.3697 544.8664,-145.77"></path>
<polygon fill="#112c5f" stroke="#112c5f" stroke-width="2" points="547.3037,-143.2483 537.9808,-138.215 542.13,-147.9636 547.3037,-143.2483"></polygon>
</g>
<!-- s_x_0&#45;&gt;System_1_4984503782552369086_0_25 -->

<!-- s_y_0&#45;&gt;System_1_4984503782552369086_0_25 -->
<g id="edge5" class="edge">
<title style="">G_1-&gt;System_1_0_25</title>
<path fill="none" stroke="#112c5f" stroke-width="2" d="M515,-173.6772C515,-166.0766 515,-156.9908 515,-148.1933"></path>
<polygon fill="#112c5f" stroke="#112c5f" stroke-width="2" points="518.5001,-148.1046 515,-138.1046 511.5001,-148.1047 518.5001,-148.1046"></polygon>
</g>
<!-- u_0 -->
<g id="node3" class="node">
<title>u_0</title>
<g id="a_node3">
<ellipse fill="#d3d247" stroke="#000000" cx="479" cy="-34" rx="27" ry="18"></ellipse>
<text text-anchor="middle" x="479" y="-29.799999999999997" font-family="Times,serif" font-size="14.00" fill="#000000">u</text>
</g>
</g>
<!-- u_0&#45;&gt;Gnuplotter_0_2 -->
<g id="edge6" class="edge">
<title style="">R_1-&gt;System_1_0_25</title>
<path fill="none" stroke="#112c5f" stroke-width="2" d="M457.2249,-176.3921C465.2056,-167.6356 475.4732,-156.3697 485.1336,-145.77"></path>
<polygon fill="#112c5f" stroke="#112c5f" stroke-width="2" points="487.87,-147.9636 492.0192,-138.215 482.6963,-143.2483 487.87,-147.9636"></polygon>
</g>
<!-- u_0&#45;&gt;Logger_0_100 -->

<!-- u_0&#45;&gt;Logger_0_2 -->
<g id="edge10" class="edge">
<title style="">noise_1-&gt;System_1_0_25</title>
<path fill="none" stroke="#112c5f" stroke-width="2" d="M390.125,-179.6563C414.1558,-166.829 452.0599,-146.5964 479.8095,-131.7841"></path>
<polygon fill="#112c5f" stroke="#112c5f" stroke-width="2" points="481.6225,-134.7838 488.7962,-126.9871 478.3262,-128.6085 481.6225,-134.7838"></polygon>
</g>
<!-- v_0 -->
<g id="node4" class="node">
<title>v_0</title>
<g id="a_node4">
<ellipse fill="#d3d247" stroke="#000000" cx="551" cy="-34" rx="27" ry="18"></ellipse>
<text text-anchor="middle" x="551" y="-29.799999999999997" font-family="Times,serif" font-size="14.00" fill="#000000">v</text>
</g>
</g>
<!-- v_0&#45;&gt;Logger_0_100 -->
<g id="edge12" class="edge">
<title style="">synU_max_1-&gt;System_1_0_25</title>
<path fill="none" stroke="#112c5f" stroke-width="2" d="M303.7882,-179.7429C351.7033,-164.6017 432.57,-139.0479 479.1093,-124.3414"></path>
<polygon fill="#112c5f" stroke="#112c5f" stroke-width="2" points="480.2922,-127.6383 488.7728,-121.2878 478.1829,-120.9637 480.2922,-127.6383"></polygon>
</g>
<!-- System_1_4984503782552369086_0_25&#45;&gt;u_0 -->

<!-- System_1_4984503782552369086_0_25&#45;&gt;v_0 -->
<g id="edge13" class="edge">
<title style="">synV_max_1-&gt;System_1_0_25</title>
<path fill="none" stroke="#112c5f" stroke-width="2" d="M180.5486,-179.9463C187.9769,-177.8451 195.7018,-175.7691 203,-174 301.972,-150.0089 420.3574,-128.9121 478.7551,-119.0008"></path>
<polygon fill="#112c5f" stroke="#112c5f" stroke-width="2" points="479.6645,-122.3969 488.943,-117.2821 478.5001,-115.4944 479.6645,-122.3969"></polygon>
</g>
<g id="node6" class="node">
<title>B_1</title>
<g id="a_node6">
<ellipse fill="#d3d247" stroke="#000000" cx="803" cy="-192" rx="27" ry="18"></ellipse>
<text text-anchor="middle" x="803" y="-187.8" font-family="Times,serif" font-size="14.00" fill="#000000">B</text>
</g>
</g><g id="node7" class="node">
<title>D_1</title>
<g id="a_node7">
<ellipse fill="#d3d247" stroke="#000000" cx="731" cy="-192" rx="27" ry="18"></ellipse>
<text text-anchor="middle" x="731" y="-187.8" font-family="Times,serif" font-size="14.00" fill="#000000">D</text>
</g>
</g><g id="node8" class="node">
<title>E_1</title>
<g id="a_node8">
<ellipse fill="#d3d247" stroke="#000000" cx="659" cy="-192" rx="27" ry="18"></ellipse>
<text text-anchor="middle" x="659" y="-187.8" font-family="Times,serif" font-size="14.00" fill="#000000">E</text>
</g>
</g><g id="node9" class="node">
<title>F_1</title>
<g id="a_node9">
<ellipse fill="#d3d247" stroke="#000000" cx="587" cy="-192" rx="27" ry="18"></ellipse>
<text text-anchor="middle" x="587" y="-187.8" font-family="Times,serif" font-size="14.00" fill="#000000">F</text>
</g>
</g><g id="node10" class="node">
<title>G_1</title>
<g id="a_node10">
<ellipse fill="#d3d247" stroke="#000000" cx="515" cy="-192" rx="27" ry="18"></ellipse>
<text text-anchor="middle" x="515" y="-187.8" font-family="Times,serif" font-size="14.00" fill="#000000">G</text>
</g>
</g><g id="node11" class="node">
<title>R_1</title>
<g id="a_node11">
<ellipse fill="#d3d247" stroke="#000000" cx="443" cy="-192" rx="27" ry="18"></ellipse>
<text text-anchor="middle" x="443" y="-187.8" font-family="Times,serif" font-size="14.00" fill="#000000">R</text>
</g>
</g><g id="node12" class="node">
<title>noise_1</title>
<g id="a_node12">
<ellipse fill="#d3d247" stroke="#000000" cx="367" cy="-192" rx="31.339" ry="18"></ellipse>
<text text-anchor="middle" x="367" y="-187.8" font-family="Times,serif" font-size="14.00" fill="#000000">noise</text>
</g>
</g><g id="node13" class="node">
<title>synU_max_1</title>
<g id="a_node13">
<ellipse fill="#d3d247" stroke="#000000" cx="265" cy="-192" rx="52.7527" ry="18"></ellipse>
<text text-anchor="middle" x="265" y="-187.8" font-family="Times,serif" font-size="14.00" fill="#000000">synU_max</text>
</g>
</g><g id="node14" class="node">
<title>synV_max_1</title>
<g id="a_node14">
<ellipse fill="#d3d247" stroke="#000000" cx="141" cy="-192" rx="52.7527" ry="18"></ellipse>
<text text-anchor="middle" x="141" y="-187.8" font-family="Times,serif" font-size="14.00" fill="#000000">synV_max</text>
</g>
</g></g>
</svg>