<?xml version="1.0" encoding="UTF-8" standalone="no"?> <svg xmlns="http://www.w3.org/2000/svg" xmlns:xlink="http://www.w3.org/1999/xlink" width="807pt" height="608pt" viewBox="0.00 0.00 806.77 608.40">
<g id="graph0" class="graph" transform="scale(1 1) rotate(0) translate(4 604.4)">
<title>%0</title>
<polygon fill="#ffffff" stroke="transparent" points="-4,4 -4,-604.4 802.7692,-604.4 802.7692,4 -4,4"></polygon>
<g id="clust1" class="cluster">
<title>cluster</title>
<polygon fill="#234178" fill-opacity="0.184314" stroke="#000000" points="8,-8 8,-592.4 785,-592.4 785,-8 8,-8"></polygon>
<text text-anchor="middle" x="396.5" y="-575.8" font-family="Times,serif" font-size="14.00" fill="#000000">Global</text>
</g>
<g id="clust2" class="cluster">
<title>cluster_1</title>
<polygon fill="#234178" fill-opacity="0.184314" stroke="#000000" points="157,-348 157,-515.6 461,-515.6 461,-348 157,-348"></polygon>
<text text-anchor="middle" x="309" y="-499" font-family="Times,serif" font-size="14.00" fill="#000000">CellType[ct1]</text>
</g>
<g id="clust3" class="cluster">
<title>cluster_2</title>
<polygon fill="#234178" fill-opacity="0.184314" stroke="#000000" points="469,-348 469,-424.8 765,-424.8 765,-348 469,-348"></polygon>
<text text-anchor="middle" x="617" y="-408.2" font-family="Times,serif" font-size="14.00" fill="#000000">CellType[ct2]</text>
</g>
<g id="clust4" class="cluster">
<title>cluster_3</title>
<polygon fill="#234178" fill-opacity="0.184314" stroke="#000000" points="26,-348 26,-424.8 149,-424.8 149,-348 26,-348"></polygon>
<text text-anchor="middle" x="87.5" y="-408.2" font-family="Times,serif" font-size="14.00" fill="#000000">CellType[medium]</text>
</g>
<!-- CPM_0_1 -->
<g id="node1" class="node">
<title>CPM_0_1</title>
<g id="a_node1">
<polygon fill="#fffea3" stroke="transparent" points="373.5,-240 318.5,-240 318.5,-182 373.5,-182 373.5,-240"></polygon>
<text text-anchor="start" x="330.6622" y="-218.5" font-family="times" font-size="15.00" fill="#000000">CPM</text>
<text text-anchor="start" x="342.75" y="-194.5" font-family="times" font-size="15.00" fill="#000000">1</text>
<polygon fill="#000000" stroke="#000000" points="327,-211 327,-211 366,-211 366,-211 327,-211"></polygon>
<polygon fill="none" stroke="#000000" points="326.5,-186 326.5,-236 365.5,-236 365.5,-186 326.5,-186"></polygon>
</g>
</g>
<!-- cell_center_0 -->
<g id="node5" class="node">
<title>cell_center_0</title>
<ellipse fill="#b5b426" stroke="#000000" cx="706" cy="-124" rx="50.9588" ry="18"></ellipse>
<ellipse fill="none" stroke="#000000" cx="706" cy="-124" rx="54.9572" ry="22"></ellipse>
<text text-anchor="middle" x="706" y="-119.8" font-family="Times,serif" font-size="14.00" fill="#000000">cell.center</text>
</g>
<!-- CPM_0_1&#45;&gt;cell_center_0 -->
<g id="edge1" class="edge">
<title>CPM_0_1-&gt;cell_center_0</title>
<path fill="none" stroke="#8f100d" stroke-width="3" d="M373.5635,-192.0536C380.0444,-188.2569 387.0844,-184.6318 394,-182 476.358,-150.6576 577.5936,-135.8392 641.9699,-129.1314"></path>
<polygon fill="#8f100d" stroke="#8f100d" stroke-width="3" points="642.3782,-132.6081 651.9769,-128.1233 641.6764,-125.6434 642.3782,-132.6081"></polygon>
</g>
<!-- cell_type_0 -->
<g id="node6" class="node">
<title>cell_type_0</title>
<ellipse fill="#d3d247" stroke="#000000" cx="346" cy="-124" rx="44.0361" ry="18"></ellipse>
<ellipse fill="none" stroke="#000000" cx="346" cy="-124" rx="48.0377" ry="22"></ellipse>
<text text-anchor="middle" x="346" y="-119.8" font-family="Times,serif" font-size="14.00" fill="#000000">cell.type</text>
</g>
<!-- CPM_0_1&#45;&gt;cell_type_0 -->
<g id="edge2" class="edge">
<title>CPM_0_1-&gt;cell_type_0</title>
<path fill="none" stroke="#8f100d" stroke-width="3" d="M346,-181.5458C346,-173.4351 346,-164.5946 346,-156.331"></path>
<polygon fill="#8f100d" stroke="#8f100d" stroke-width="3" points="349.5001,-156.2705 346,-146.2705 342.5001,-156.2706 349.5001,-156.2705"></polygon>
</g>
<!-- Gnuplotter_0_100 -->
<g id="node2" class="node">
<title>Gnuplotter_0_100</title>
<g id="a_node2">
<polygon fill="#fffea3" stroke="transparent" points="382,-66 310,-66 310,-16 382,-16 382,-66"></polygon>
<text text-anchor="start" x="313.507" y="-48.5" font-family="times" font-size="15.00" fill="#000000">Gnuplotter</text>
<text text-anchor="start" x="334.75" y="-24.5" font-family="times" font-size="15.00" fill="#000000">100</text>
<polygon fill="#000000" stroke="#000000" points="310,-41 310,-41 382,-41 382,-41 310,-41"></polygon>
<polygon fill="none" stroke="#000000" points="310,-16 310,-66 382,-66 382,-16 310,-16"></polygon>
</g>
</g>
<!-- Logger_0_100 -->
<g id="node3" class="node">
<title>Logger_0_100</title>
<g id="a_node3">
<polygon fill="#fffea3" stroke="transparent" points="457,-236 403,-236 403,-186 457,-186 457,-236"></polygon>
<text text-anchor="start" x="408.8423" y="-218.5" font-family="times" font-size="15.00" fill="#000000">Logger</text>
<text text-anchor="start" x="419.25" y="-194.5" font-family="times" font-size="15.00" fill="#000000">100</text>
<polygon fill="#000000" stroke="#000000" points="405,-211 405,-211 456,-211 456,-211 405,-211"></polygon>
<polygon fill="none" stroke="#000000" points="404.5,-186 404.5,-236 455.5,-236 455.5,-186 404.5,-186"></polygon>
</g>
</g>
<!-- c_0 -->
<g id="node4" class="node">
<title>c_0</title>
<ellipse fill="#d3d247" stroke="#000000" cx="336" cy="-298" rx="27" ry="18"></ellipse>
<ellipse fill="none" stroke="#000000" cx="336" cy="-298" rx="31" ry="22"></ellipse>
<text text-anchor="middle" x="336" y="-293.8" font-family="Times,serif" font-size="14.00" fill="#000000">c</text>
</g>
<!-- c_0&#45;&gt;CPM_0_1 -->
<g id="edge4" class="edge">
<title>c_0-&gt;CPM_0_1</title>
<path fill="none" stroke="#112c5f" stroke-width="2" d="M338.5234,-276.0462C339.4217,-268.2313 340.4626,-259.175 341.4771,-250.3488"></path>
<polygon fill="#112c5f" stroke="#112c5f" stroke-width="2" points="344.9809,-250.5158 342.6458,-240.1815 338.0267,-249.7164 344.9809,-250.5158"></polygon>
</g>
<!-- c_0&#45;&gt;Logger_0_100 -->
<g id="edge5" class="edge">
<title>c_0-&gt;Logger_0_100</title>
<path fill="none" stroke="#112c5f" stroke-width="2" d="M355.0223,-280.3943C366.61,-269.6695 381.765,-255.6431 395.415,-243.0095"></path>
<polygon fill="#112c5f" stroke="#112c5f" stroke-width="2" points="397.8496,-245.5252 402.8113,-236.164 393.0948,-240.3879 397.8496,-245.5252"></polygon>
</g>
<!-- cell_type_0&#45;&gt;Gnuplotter_0_100 -->
<g id="edge11" class="edge">
<title>cell_type_0-&gt;Gnuplotter_0_100</title>
<path fill="none" stroke="#112c5f" stroke-width="2" d="M346,-101.7575C346,-93.974 346,-85.0292 346,-76.4385"></path>
<polygon fill="#112c5f" stroke="#112c5f" stroke-width="2" points="349.5001,-76.2372 346,-66.2373 342.5001,-76.2373 349.5001,-76.2372"></polygon>
</g>
<!-- celltype_ct1_id_0 -->
<g id="node7" class="node">
<title>celltype_ct1_id_0</title>
<ellipse fill="#d3d247" stroke="#000000" cx="451" cy="-298" rx="65.989" ry="18"></ellipse>
<text text-anchor="middle" x="451" y="-293.8" font-family="Times,serif" font-size="14.00" fill="#000000">celltype.ct1.id</text>
</g>
<!-- celltype_ct1_id_0&#45;&gt;Logger_0_100 -->
<g id="edge14" class="edge">
<title>celltype_ct1_id_0-&gt;Logger_0_100</title>
<path fill="none" stroke="#112c5f" stroke-width="2" d="M446.6488,-279.9735C444.2887,-270.1958 441.2886,-257.767 438.4871,-246.1609"></path>
<polygon fill="#112c5f" stroke="#112c5f" stroke-width="2" points="441.8462,-245.1603 436.0974,-236.2608 435.0416,-246.8029 441.8462,-245.1603"></polygon>
</g>
<!-- time_0 -->
<g id="node8" class="node">
<title>time_0</title>
<g id="a_node8">
<ellipse fill="#d3d247" stroke="#000000" cx="302" cy="-541.6" rx="28.4069" ry="18"></ellipse>
<text text-anchor="middle" x="302" y="-537.4" font-family="Times,serif" font-size="14.00" fill="#000000">time</text>
</g>
</g>
<!-- Equation_1_1 -->
<g id="node9" class="node">
<title>Equation_1_1</title>
<g id="a_node9">
<polygon fill="#fffea3" stroke="transparent" points="333,-482.8 271,-482.8 271,-432.8 333,-432.8 333,-482.8"></polygon>
<text text-anchor="start" x="274.9205" y="-465.3" font-family="times" font-size="15.00" fill="#000000">Equation</text>
<text text-anchor="start" x="298.25" y="-441.3" font-family="times" font-size="15.00" fill="#000000">1</text>
<polygon fill="#000000" stroke="#000000" points="271,-457.8 271,-457.8 333,-457.8 333,-457.8 271,-457.8"></polygon>
<polygon fill="none" stroke="#000000" points="271,-432.8 271,-482.8 333,-482.8 333,-432.8 271,-432.8"></polygon>
</g>
</g>
<!-- time_0&#45;&gt;Equation_1_1 -->
<g id="edge15" class="edge">
<title>time_0-&gt;Equation_1_1</title>
<path fill="none" stroke="#112c5f" stroke-width="2" d="M302,-523.4166C302,-514.5353 302,-503.5343 302,-493.0944"></path>
<polygon fill="#112c5f" stroke="#112c5f" stroke-width="2" points="305.5001,-492.941 302,-482.941 298.5001,-492.941 305.5001,-492.941"></polygon>
</g>
<!-- c_1 -->
<g id="node10" class="node">
<title>c_1</title>
<g id="a_node10">
<ellipse fill="#d3d247" stroke="#000000" cx="313" cy="-374" rx="27" ry="18"></ellipse>
<text text-anchor="middle" x="313" y="-369.8" font-family="Times,serif" font-size="14.00" fill="#000000">c</text>
</g>
</g>
<!-- Equation_1_1&#45;&gt;c_1 -->
<g id="edge3" class="edge">
<title>Equation_1_1-&gt;c_1</title>
<path fill="none" stroke="#8f100d" stroke-width="3" d="M305.3004,-432.6572C306.5645,-423.0272 308.0141,-411.9832 309.3122,-402.0942"></path>
<polygon fill="#8f100d" stroke="#8f100d" stroke-width="3" points="312.8139,-402.3091 310.6453,-391.9386 305.8735,-401.398 312.8139,-402.3091"></polygon>
</g>
<!-- c_1&#45;&gt;c_0 -->
<g id="edge6" class="edge">
<title>c_1-&gt;c_0</title>
<path fill="none" stroke="#38568c" stroke-dasharray="5,2" d="M318.4507,-355.9891C321.7451,-345.1031 325.9655,-331.1576 329.4418,-319.6705"></path>
</g>
<!-- cell_center_1 -->
<g id="node11" class="node">
<title>cell_center_1</title>
<ellipse fill="#b5b426" stroke="#000000" cx="402" cy="-457.8" rx="50.9572" ry="18"></ellipse>
<text text-anchor="middle" x="402" y="-453.6" font-family="Times,serif" font-size="14.00" fill="#000000">cell.center</text>
</g>
<!-- cell_center_1&#45;&gt;cell_center_0 -->
<g id="edge9" class="edge">
<title>cell_center_1-&gt;cell_center_0</title>
<path fill="none" stroke="#38568c" stroke-dasharray="5,2" d="M453.21,-456.9439C549.1291,-454.8067 748.1203,-447.6414 769,-424.8 842.7977,-344.0688 758.005,-199.7455 721.2915,-145.4457"></path>
</g>
<!-- cell_type_1 -->
<g id="node12" class="node">
<title>cell_type_1</title>
<g id="a_node12">
<ellipse fill="#d3d247" stroke="#000000" cx="209" cy="-457.8" rx="44.0377" ry="18"></ellipse>
<text text-anchor="middle" x="209" y="-453.6" font-family="Times,serif" font-size="14.00" fill="#000000">cell.type</text>
</g>
</g>
<!-- cell_type_1&#45;&gt;cell_type_0 -->
<g id="edge12" class="edge">
<title>cell_type_1-&gt;cell_type_0</title>
<path fill="none" stroke="#38568c" stroke-dasharray="5,2" d="M165.0911,-456.3509C115.6654,-453.6868 39.9047,-446.141 22,-424.8 .0613,-398.6508 6.1488,-378.2295 22,-348 83.0529,-231.5673 235.1321,-163.6827 307.0887,-137.0933"></path>
</g>
<!-- c_2 -->
<g id="node13" class="node">
<title>c_2</title>
<g id="a_node13">
<ellipse fill="#d3d247" stroke="#000000" cx="504" cy="-374" rx="27" ry="18"></ellipse>
<text text-anchor="middle" x="504" y="-369.8" font-family="Times,serif" font-size="14.00" fill="#000000">c</text>
</g>
</g>
<!-- c_2&#45;&gt;c_0 -->
<g id="edge7" class="edge">
<title>c_2-&gt;c_0</title>
<path fill="none" stroke="#38568c" stroke-dasharray="5,2" d="M485.9903,-360.4478C479.5945,-356.06 472.1933,-351.4429 465,-348 427.5966,-330.0977 414.1316,-336.2939 376,-320 370.7526,-317.7578 365.2928,-315.0365 360.1552,-312.2831"></path>
</g>
<!-- cell_center_2 -->
<g id="node14" class="node">
<title>cell_center_2</title>
<ellipse fill="#b5b426" stroke="#000000" cx="706" cy="-374" rx="50.9572" ry="18"></ellipse>
<text text-anchor="middle" x="706" y="-369.8" font-family="Times,serif" font-size="14.00" fill="#000000">cell.center</text>
</g>
<!-- cell_center_2&#45;&gt;cell_center_0 -->
<g id="edge10" class="edge">
<title>cell_center_2-&gt;cell_center_0</title>
<path fill="none" stroke="#38568c" stroke-dasharray="5,2" d="M706,-355.6169C706,-310.6247 706,-195.0953 706,-146.2914"></path>
</g>
<!-- cell_type_2 -->
<g id="node15" class="node">
<title>cell_type_2</title>
<g id="a_node15">
<ellipse fill="#d3d247" stroke="#000000" cx="593" cy="-374" rx="44.0377" ry="18"></ellipse>
<text text-anchor="middle" x="593" y="-369.8" font-family="Times,serif" font-size="14.00" fill="#000000">cell.type</text>
</g>
</g>
<!-- cell_type_2&#45;&gt;cell_type_0 -->
<g id="edge13" class="edge">
<title>cell_type_2-&gt;cell_type_0</title>
<path fill="none" stroke="#38568c" stroke-dasharray="5,2" d="M585.1898,-356.0816C568.3108,-319.1467 525.1282,-233.6837 466,-182 442.4805,-161.4418 410.3958,-146.4367 385.32,-136.8451"></path>
</g>
<!-- c_3 -->
<g id="node16" class="node">
<title>c_3</title>
<g id="a_node16">
<ellipse fill="#d3d247" stroke="#000000" cx="114" cy="-374" rx="27" ry="18"></ellipse>
<text text-anchor="middle" x="114" y="-369.8" font-family="Times,serif" font-size="14.00" fill="#000000">c</text>
</g>
</g>
<!-- c_3&#45;&gt;c_0 -->
<g id="edge8" class="edge">
<title>c_3-&gt;c_0</title>
<path fill="none" stroke="#38568c" stroke-dasharray="5,2" d="M131.9363,-360.2905C138.3262,-355.8902 145.7424,-351.3053 153,-348 204.2543,-324.6574 268.6874,-310.1899 305.8245,-303.156"></path>
</g>
</g>
</svg>